id	nm	lat	lon	countryCode
819827	Razvilka	55.591667	37.740833	RU
524901	Moscow	55.752220	37.615555	RU
524901	Moscow	55.752220	37.615555	RU
524901	Moscow	55.752220	37.615555	RU
524901	Moscow	55.752220	37.615555	RU
1271881	Firozpur Jhirka	27.799999	76.949997	IN
1283240	Kathmandu	27.716667	85.316666	NP
703448	Kiev	50.433334	30.516666	UA
1282898	Pokhara	28.233334	83.983330	NP
3632308	Merida	8.598333	-71.144997	VE
1273294	Delhi	28.666668	77.216667	IN
502069	Reshetnikovo	56.450001	36.566666	RU
3645532	Ciudad Bolivar	8.122222	-63.549721	VE
529368	Marfino	55.702778	37.382221	RU
462755	Zhukovskiy	55.595280	38.120277	RU
502018	Reutov	55.759445	37.861668	RU
538601	Kurovskoye	55.578335	38.910831	RU
463355	Zheleznodorozhnyy	55.750278	38.004166	RU
560756	Golitsyno	55.612221	36.983334	RU
509820	Petrozavodsk	61.784912	34.346909	RU
498817	Saint Petersburg	59.894444	30.264168	RU
547560	Klimovsk	55.364723	37.525002	RU
1496747	Novosibirsk	55.041111	82.934441	RU
709717	Donetsk	48.000000	37.799999	UA
555746	Istra	55.917778	36.864166	RU
712969	Bakhchysaray	44.750000	33.866669	UA
569591	Chekhov	55.143055	37.471111	RU
532477	Lyubuchany	55.251110	37.545555	RU
471457	Vostryakovo	55.400555	37.811111	RU
711660	Boryspil	50.349998	30.950001	UA
564719	Dubna	56.733334	37.166668	RU
564912	Druzhba	55.885555	37.740276	RU
571557	Bronnitsy	55.419445	38.270832	RU
563705	Dzerzhinskiy	55.628613	37.846943	RU
532657	Lytkarino	55.581390	37.905834	RU
523812	Mytishchi	55.908890	37.733891	RU
503977	Pushkino	56.017223	37.866669	RU
505597	Pravdinskiy	56.066666	37.849998	RU
463826	Zelenogradskiy	56.099998	37.916668	RU
580597	Ashukino	56.160000	37.950001	RU
549373	Khotkovo	56.256989	37.995441	RU
497165	Semkhoz	56.283333	38.066666	RU
496638	Sergiyev Posad	56.299999	38.133331	RU
580881	Arsaki	56.380001	38.480000	RU
487095	Strunino	56.383331	38.566666	RU
583350	Aleksandrov	56.400002	38.709999	RU
552977	Karabanovo	56.316666	38.700001	RU
548278	Kirzhach	56.150002	38.866669	RU
515024	Orekhovo-Zuyevo	55.810833	38.971943	RU
535243	Likino-Dulevo	55.711666	38.954445	RU
566950	Davydovo	55.609722	38.856945	RU
557132	Ilinskiy Pogost	55.477222	38.911945	RU
468250	Yegoryevsk	55.378334	39.041111	RU
562445	Fosforitnyy	55.326111	38.900002	RU
549531	Khorlovo	55.335278	38.813057	RU
534174	Lopatinskiy	55.340557	38.725555	RU
531098	Malino	55.111111	38.180000	RU
526652	Mikhnevo	55.127220	37.952221	RU
526651	Mikhnevo	55.134724	37.944721	RU
487441	Stolbovaya	55.252777	37.485279	RU
540030	Kubinka	55.583889	36.689999	RU
505824	Povarovo	56.066666	37.049999	RU
557382	Iksha	56.166668	37.516666	RU
565955	Dmitrov	56.349998	37.516666	RU
492333	Skoropuskovskiy	56.366669	38.166668	RU
529638	Mamontovka	55.999443	37.814167	RU
694320	Shchebetovka	44.933334	35.150002	UA
1261481	New Delhi	28.612820	77.231140	IN
1271951	Faridabad	28.433332	77.316666	IN
1260637	Palwal	28.150000	77.333336	IN
1270000	Hodal	27.900000	77.366669	IN
1266073	Kosi	27.799999	77.433334	IN
1274343	Chhata	27.716667	77.500000	IN
1263364	Mathura	27.500000	77.683334	IN
1271059	Gokul	27.450001	77.716667	IN
1271956	Farah	27.333332	77.766670	IN
1279259	Agra	27.183332	78.016670	IN
1266510	Kiraoli	27.150000	77.783333	IN
1271900	Fatehpur Sikri	27.100000	77.666664	IN
1276128	Bharatpur	27.216667	77.483330	IN
1264323	Mahwah	27.049999	76.933334	IN
1273369	Dausa	26.883333	76.333336	IN
1276767	Basi	26.833332	76.033333	IN
1269515	Jaipur	26.916668	75.816666	IN
1263649	Manoharpur	27.299999	75.949997	IN
1256705	Shahpura	27.383333	75.966667	IN
3645528	Ciudad Guayana	8.353333	-62.652779	VE
3625710	Upata	8.008611	-62.398888	VE
572090	Borovoy	64.583336	32.133331	RU
471501	Vostochnyy	55.816666	37.866669	RU
3641099	El Vigia	8.621944	-71.650558	VE
3644417	Ejido	8.551389	-71.237503	VE
473021	Vnukovo	55.615002	37.219166	RU
516436	Obninsk	55.096943	36.610279	RU
524649	Mstikhino	54.559471	36.127769	RU
579838	Babynino	54.389999	35.730000	RU
523186	Navlya	52.828056	34.498890	RU
582358	Altukhovo	52.669998	34.360001	RU
546633	Kokorevka	52.587223	34.277779	RU
485817	Suzemka	52.317780	34.068890	RU
709584	Druzhba	52.042778	33.945278	UA
688501	Yampil	51.950001	33.783333	UA
711999	Bobrovytsya	50.750000	31.383333	UA
550280	Khimki	55.901669	37.437500	RU
542374	Krasnogorsk	55.822498	37.318054	RU
522730	Nemchinovka	55.722778	37.366390	RU
476372	Vatutinki	55.498333	37.332500	RU
468671	Yasnogorsk	54.480278	37.697498	RU
464343	Zasechnoye	53.109165	45.076389	RU
500400	Russkiy Kameshkir	52.858891	46.089169	RU
582926	Alekseyevka	52.299999	48.020000	RU
608668	Oral	51.233334	51.366669	KZ
610386	Bayganin	48.694721	55.874168	KZ
1265961	Kotputli	27.716667	76.199997	IN
1276589	Behror	27.883333	76.283333	IN
1276666	Bawal	28.083332	76.583336	IN
1272822	Dharuhera	28.216667	76.783333	IN
1270642	Gurgaon	28.466667	77.033333	IN
523750	Naberezhnyye Chelny	55.756111	52.428890	RU
625144	Minsk	53.900002	27.566668	BY
571170	Bugulma	54.549999	52.799999	RU
552974	Karabash	54.700001	52.566666	RU
2014006	Ussuriysk	43.798611	131.950836	RU
689037	Vorokhta	48.286945	24.571943	UA
1253405	Varanasi	25.333332	83.000000	IN
1258642	Ramnagar	25.283333	83.033333	IN
1262634	Mughal Sarai	25.299999	83.116669	IN
1257022	Satna	24.583332	80.833336	IN
1260454	Panna	24.716667	80.199997	IN
1275120	Bulandshahr	28.400000	77.849998	IN
1256532	Shikarpur	28.283333	78.016670	IN
1272653	Dibai	28.216667	78.250000	IN
1261837	Naraura	28.200001	78.383331	IN
1257800	Sahaswan	28.083332	78.750000	IN
1253918	Ujhani	28.016666	79.016670	IN
1268540	Kakrala	27.900000	79.199997	IN
1253673	Usehat	27.816668	79.250000	IN
1269447	Jalalabad	27.716667	79.666664	IN
1278990	Allahganj	27.549999	79.683334	IN
1270370	Hardoi	27.416668	80.116669	IN
1257459	Sandila	27.083332	80.516670	IN
1264085	Malihabad	26.916668	80.716667	IN
1268545	Kakori	26.883333	80.800003	IN
1264733	Lucknow	26.850000	80.916664	IN
1270890	Goshainganj	26.766666	81.116669	IN
1257005	Satrikh	26.866667	81.199997	IN
1252698	Zaidpur	26.833332	81.333336	IN
1254536	Tikaitnagar	26.950001	81.583336	IN
1283621	Bhairahawa	27.500000	83.449997	NP
1283613	Bharatpur	27.683332	84.433334	NP
1283190	Kirtipur	27.666668	85.283333	NP
1282931	Patan	27.666668	85.333336	NP
692672	Stavyshche	50.400002	29.533333	UA
711390	Brovary	50.500000	30.766666	UA
694558	Semypolky	50.716667	30.933332	UA
578953	Barvikha	55.740002	37.270000	RU
509998	Petrovo-Dalneye	55.746113	37.181110	RU
521821	Nikolina Gora	55.734444	37.041389	RU
461920	Zvenigorod	55.733334	36.847500	RU
480685	Tuchkovo	55.601112	36.468056	RU
541286	Kratovo	55.586945	38.204723	RU
545405	Konobeyevo	55.406387	38.662498	RU
471656	Voskresensk	55.312500	38.663612	RU
502345	Rechitsy	55.597778	38.463890	RU
525396	Monino	55.838055	38.194443	RU
516305	Obukhovo	55.832779	38.272499	RU
556463	Imeni Vorovskogo	55.723331	38.341389	RU
563523	Elektrostal	55.791943	38.442223	RU
512023	Pavlovskiy Posad	55.784721	38.650555	RU
565007	Drezna	55.745834	38.849724	RU
515186	Opalikha	55.827499	37.255001	RU
518346	Novopetrovskoye	55.992779	36.471943	RU
475845	Verbilki	56.533333	37.599998	RU
580616	Ashitkovo	55.439999	38.590000	RU
495515	Shaturtorf	55.567223	39.416943	RU
573922	Bolshiye Vyazemy	55.633331	36.983334	RU
463465	Zhavoronki	55.649723	37.104168	RU
527888	Medvezhyegorsk	62.916668	34.466667	RU
6730265	Obolensk	54.977409	37.224483	RU
496527	Serpukhov	54.921391	37.410831	RU
503581	Pyaozerskiy	65.833336	31.166668	RU
533964	Loukhi	66.076385	33.038055	RU
545673	Konakovo	56.700001	36.766666	RU
461704	Novozavidovskiy	56.549999	36.433334	RU
543106	Kozlovo	56.516666	36.266666	RU
1264773	Loni	28.750000	77.283333	IN
294166	Mitzpe Ramon	30.609444	34.801109	IL
1258972	Raipur	26.049999	74.016670	IN
691606	Terny	50.983334	33.983334	UA
565284	Donskoye	52.775833	41.488335	RU
688455	Yaremche	48.458332	24.551945	UA
1506394	Plotnikovo	55.024723	85.943611	RU
518337	Novopodrezkovo	55.942780	37.346668	RU
492448	Skhodnya	55.955833	37.297222	RU
463829	Zelenograd	55.982498	37.181389	RU
583491	Alabushevo	56.009998	37.150002	RU
510225	Petrodvorets	59.884998	29.895832	RU
487227	Strelna	59.848331	30.026112	RU
621729	Horad Smalyavichy	54.033333	28.084167	BY
618800	Horad Zhodzina	54.098331	28.332500	BY
1283011	Namche Bazar	27.816668	86.716667	NP
1253986	Udaipur	24.571167	73.691826	IN
1260716	Pali	25.766666	73.333336	IN
1268865	Jodhpur	26.286667	73.029999	IN
1269507	Jaisalmer	26.914684	70.918076	IN
1259148	Pushkar	26.500000	74.550003	IN
1279159	Ajmer	26.450001	74.633331	IN
1267995	Kanpur	26.466667	80.349998	IN
1271439	Gaya	24.783333	85.000000	IN
1275389	Bodh Gaya	24.700001	84.983330	IN
479123	Ulyanovsk	54.333332	48.400002	RU
6417535	Mosrentgen	55.618332	37.471111	RU
500843	Rublevo	55.785557	37.355831	RU
469341	Yam	55.484444	37.749168	RU
486968	Stupino	54.900833	38.070831	RU
524423	Muranovo	56.183334	37.900002	RU
490996	Solnechnogorsk	56.183334	36.983334	RU
507599	Pokrov	55.919998	39.176945	RU
495344	Shchelkovo	55.921665	37.991390	RU
562319	Fryazino	55.960556	38.045555	RU
491351	Sofrino	56.150002	37.966667	RU
565381	Domodedovo	55.442223	37.758331	RU
469533	Yakovlevskoye	55.441944	37.950558	RU
568808	Chernogolovka	56.000000	38.366669	RU
562322	Fryanovo	56.133331	38.450001	RU
523553	Nakhabino	55.851391	37.181389	RU
495619	Sharya	58.368610	45.514442	RU
529505	Manturovo	58.335278	44.761944	RU
532138	Makaryev	57.879723	43.806946	RU
543494	Kovernino	57.125278	43.814167	RU
559678	Gorodets	56.651390	43.474998	RU
464101	Zavolzhye	56.642776	43.393612	RU
510323	Pestyaki	56.710278	42.671665	RU
559459	Gorokhovets	56.194721	42.700279	RU
524294	Murom	55.565556	42.041668	RU
468030	Yelatma	54.967499	41.750832	RU
551891	Kasimov	54.941113	41.395279	RU
554836	Izhevskoye	54.556667	40.870277	RU
489741	Spassk-Ryazanskiy	54.407223	40.380554	RU
524298	Murmino	54.603611	40.054443	RU
500096	Ryazan	54.619720	39.740002	RU
499975	Rybnoye	54.725555	39.511944	RU
464687	Zaraysk	54.765278	38.883610	RU
513362	Ozherelye	54.796112	38.267223	RU
562321	Fryazevo	55.731945	38.462776	RU
461916	Zvenigovo	55.974167	48.018055	RU
543018	Kozmodemyansk	56.336666	46.571110	RU
572665	Bor	56.356667	44.066944	RU
520555	Nizhniy Novgorod	56.328674	44.002048	RU
522871	Neklyudovo	56.411388	43.981388	RU
513095	Palekh	56.802776	41.857224	RU
466084	Yuzha	56.583057	42.012222	RU
553389	Kameshkovo	56.348057	41.004723	RU
548781	Kideksha	56.416668	40.516666	RU
485824	Suzdal	56.428055	40.441387	RU
561783	Gavrilov Posad	56.559723	40.117500	RU
466215	Yuryev-Polskiy	56.500000	39.683334	RU
578641	Bavleny	56.400002	39.560001	RU
546521	Kolchugino	56.299999	39.383331	RU
491687	Smolensk	54.781666	32.040001	RU
628758	Dubrowna	54.573334	30.690556	BY
624079	Orsha	54.515278	30.405277	BY
630431	Baran	54.476391	30.318056	BY
622034	Shklow	54.210835	30.291945	BY
625665	Mahilyow	53.913891	30.336390	BY
629471	Buynichy	53.850555	30.263889	BY
627272	Kirawsk	53.268612	29.473612	BY
630468	Babruysk	53.150002	29.233334	BY
624034	Asipovichy	53.293331	28.642221	BY
626956	Kapyl	53.153057	27.096666	BY
624700	Nyasvizh	53.218056	26.672501	BY
628182	Haradzyeya	53.316666	26.533333	BY
625128	Mir	53.450001	26.466667	BY
626939	Karelichy	53.565277	26.137777	BY
624785	Navahrudak	53.599998	25.833332	BY
621754	Slonim	53.086666	25.321943	BY
622997	Pruzhany	52.556667	24.464443	BY
629634	Brest	52.099998	23.700001	BY
545791	Kommunar	56.116669	40.433334	RU
575609	Bogolyubovo	56.195557	40.529720	RU
543878	Kostroma	57.770832	40.934444	RU
486015	Susanino	58.146111	41.587223	RU
555312	Ivanovo	56.994167	40.985832	RU
562309	Furmanov	57.250832	41.105831	RU
505060	Privolzhsk	57.380833	41.288612	RU
509029	Ples	57.458618	41.515789	RU
542024	Krasnoye-na-Volge	57.512501	41.241943	RU
543704	Kotlas	61.261112	46.655556	RU
505112	Privodino	61.078056	46.504444	RU
542908	Krasavino	60.961388	46.481388	RU
476062	Velikiy Ustyug	60.764442	46.310555	RU
516539	Nyuksenitsa	60.412777	44.239723	RU
481960	Totma	59.974724	42.764168	RU
491025	Soligalich	59.077778	42.286388	RU
567695	Chukhloma	58.752499	42.682499	RU
562161	Galich	58.379723	42.347500	RU
563522	Elektrougli	55.717220	38.207779	RU
489264	Staraya	59.928055	30.620556	RU
709112	Foros	44.400002	33.783333	UA
700997	Miskhor	44.433334	34.083332	UA
712930	Balaklava	44.500000	33.599998	UA
688533	Yalta	44.500000	34.166668	UA
701619	Massandra	44.516666	34.183334	UA
711527	Nikita	44.533333	34.233334	UA
712576	Inkerman	44.599998	33.599998	UA
694423	Sevastopol	44.599998	33.533333	UA
713513	Alushta	44.666668	34.416668	UA
697653	Perevalnoe	44.833332	34.333332	UA
692315	Sudak	44.849998	34.966667	UA
697124	Koktebel	44.950001	35.250000	UA
709161	Feodosiya	45.033333	35.383331	UA
694910	Saky	45.135555	33.603058	UA
690556	Uyutne	45.199444	33.301388	UA
688105	Yevpatoriya	45.197224	33.355831	UA
706524	Kerch	45.358334	36.475834	UA
700550	Mysove	45.450001	35.849998	UA
710687	Chornomorske	45.503887	32.699722	UA
491422	Sochi	43.599998	39.730278	RU
542681	Krasnaya Polyana	43.675835	40.207222	RU
536625	Lazarevskoye	43.906113	39.333057	RU
523048	Nebug	44.171391	39.003613	RU
553514	Kamennomostskiy	44.298332	40.185555	RU
566157	Divnomorskoye	44.501110	38.135277	RU
561667	Gelendzhik	44.573055	38.074722	RU
559317	Goryachiy Klyuch	44.630833	39.130001	RU
584365	Abrau-Dyurso	44.689999	37.590000	RU
582181	Anapskaya	44.889999	37.380001	RU
473295	Vityazevo	44.993057	37.271942	RU
473546	Vinogradnyy	45.051666	37.318890	RU
483661	Temryuk	45.272221	37.381111	RU
560513	Golubitskaya	45.322224	37.282223	RU
583811	Akhtanizovskaya	45.320000	37.099998	RU
488713	Staronizhestebliyevskaya	45.376667	38.451668	RU
611847	Sokhumi	43.003334	41.015278	GE
615912	Stantsiya Novyy Afon	43.080555	40.838333	GE
615460	Bichvinta	43.159168	40.337776	GE
614622	Gagra	43.328335	40.223888	GE
512039	Pavlovskaya Sloboda	55.815556	37.082779	RU
2014571	Uglovoye	43.328888	132.091660	RU
2021956	Knevichi	43.399166	132.180283	RU
584243	Adler	43.430000	39.919998	RU
803494	Orel-Izumrud	43.458332	39.924442	RU
803498	Vysokoye	43.460556	39.965832	RU
549424	Khosta	43.514721	39.868889	RU
823674	Dagomys	43.670277	39.668888	RU
477047	Vardane	43.731667	39.551388	RU
552562	Kardonikskaya	43.861668	41.719444	RU
498462	Sary-Tyuz	43.901390	41.899723	RU
505539	Pregradnaya	43.950832	41.199444	RU
559320	Goryachevodskiy	44.023609	43.092220	RU
494846	Shepsi	44.036110	39.148888	RU
503550	Pyatigorsk	44.048611	43.059444	RU
480716	Tuapse	44.112499	39.074165	RU
526480	Mineralnyye Vody	44.210278	43.135277	RU
581788	Andzhiyevskiy	44.230000	43.080002	RU
485871	Suvorovskaya	44.194168	42.653889	RU
535440	Levokumka	44.231667	43.150002	RU
518585	Novomikhaylovskiy	44.258057	38.857777	RU
563601	Dzhubga	44.321110	38.703888	RU
580969	Arkhipo-Osipovka	44.369999	38.520000	RU
490747	Soluno-Dmitriyevskoye	44.403057	42.727779	RU
708953	Gaspra	44.433334	34.099998	UA
550846	Khadyzhensk	44.425556	39.531944	RU
581313	Apsheronsk	44.459999	39.730000	RU
504376	Pshada	44.468887	38.398056	RU
709075	Partenit	44.577995	34.344635	UA
522377	Nevinnomyssk	44.626667	41.945278	RU
554668	Kabardinka	44.651390	37.942780	RU
537281	Labinsk	44.634167	40.735558	RU
498672	Saratovskaya	44.710278	39.224445	RU
518255	Novorossiysk	44.723888	37.770832	RU
577893	Belorechensk	44.759998	39.869999	RU
502542	Rayevskaya	44.831944	37.555557	RU
496385	Severnoye	44.831944	42.858334	RU
483142	Adygeysk	44.880001	39.189999	RU
517769	Novoukrainskiy	44.896942	38.052223	RU
482582	Tlyustenkhabl	44.980000	39.097221	RU
512382	Pashkovskiy	45.023056	39.106110	RU
692714	Staryy Krym	45.033333	35.099998	UA
487846	Stavropol	45.042778	41.973331	RU
542420	Krasnodar	45.032780	38.976944	RU
712587	Bilohirsk	45.049999	34.599998	UA
712427	Berehove	45.099998	35.433334	UA
488606	Starotitarovskaya	45.213612	37.143890	RU
517842	Novotitarovskaya	45.235558	38.979168	RU
550452	Khatukay	45.188889	39.666389	RU
492094	Slavyansk-na-Kubani	45.251945	38.118057	RU
478044	Ust-Labinsk	45.212502	39.686390	RU
481275	Trudobelikovskiy	45.268612	38.163055	RU
509124	Plastunovskaya	45.293888	39.266945	RU
537235	Ladozhskaya	45.308056	39.935001	RU
540761	Kropotkin	45.437500	40.575558	RU
527968	Medvedovskaya	45.453056	39.025833	RU
554173	Kalininskaya	45.482224	38.662777	RU
551669	Kavkazskaya	45.445000	40.672779	RU
544896	Korenovsk	45.468613	39.451942	RU
470338	Vyselki	45.579445	39.659721	RU
482965	Timashevsk	45.616943	38.945278	RU
709334	Dzhankoy	45.716667	34.400002	UA
542334	Krasnogvardeyskoye	45.845554	41.518612	RU
556170	Irkliyevskaya	45.853889	39.656113	RU
512533	Parkovyy	45.833057	40.145557	RU
518249	Novorozhdestvenskaya	45.861942	39.954166	RU
483029	Tikhoretsk	45.854721	40.125278	RU
483326	Ternevskaya	45.854168	40.408611	RU
518325	Novopokrovskaya	45.951389	40.700558	RU
540055	Kubanskiy	45.929169	40.580555	RU
704362	Krasnoperekopsk	45.955002	33.792221	UA
488758	Staroleushkovskaya	45.990555	39.763058	RU
578169	Belaya Glina	46.070000	40.860001	RU
512051	Pavlovskaya	46.132778	39.785557	RU
712160	Bilhorod-Dnistrovskyy	46.200001	30.350000	UA
510613	Peschanokopskoye	46.196110	41.077499	RU
699706	Novooleksiyivka	46.226944	34.642776	UA
697957	Partyzany	46.331390	34.750278	UA
698740	Odessa	46.477474	30.732622	UA
2020689	Luchegorsk	46.476391	134.256943	RU
499161	Salsk	46.472500	41.542778	RU
488742	Starominskaya	46.529999	39.049721	RU
708632	Hola Prystan	46.520557	32.525833	UA
538416	Kushchevskaya	46.556389	39.638611	RU
553159	Kanelovskaya	46.590832	39.189999	RU
565456	Dolzhanskaya	46.631111	37.803890	RU
713743	Yakymivka	46.689720	35.153610	UA
504831	Proletarsk	46.703056	41.719166	RU
466885	Yeysk	46.698891	38.279167	RU
712451	Berdyansk	46.750278	36.794445	UA
701404	Melitopol	46.842220	35.373055	UA
514796	Orlovskiy	46.871387	42.059166	RU
499055	Samarskoye	46.933613	39.681389	RU
699657	Novobohdanivka	47.081944	35.327221	UA
462522	Zimovniki	47.148335	42.463333	RU
583673	Aksay	47.259998	39.869999	RU
501175	Rostov-na-Donu	47.236389	39.713890	RU
691469	Tokmak	47.251389	35.705833	UA
505256	Primorka	47.283611	39.062500	RU
579771	Bagayevskaya	47.320000	40.380001	RU
564593	Dubovskoye	47.409168	42.757500	RU
558384	Grushevskaya	47.440556	39.951111	RU
686729	Vasylivka	47.436943	35.274166	UA
2013229	Vyazemskiy	47.537777	134.752502	RU
543728	Kotelnikovo	47.631668	43.146111	RU
707898	Hulyaypole	47.665279	36.257778	UA
528242	Mayskiy	47.693054	40.102501	RU
703555	Kushuhum	47.714443	35.209167	UA
580139	Ayutinskiy	47.770000	40.139999	RU
499535	Sadovoye	47.776390	44.508888	RU
703845	Kryvyy Rih	47.916668	33.349998	UA
546579	Koksovyy	48.196667	40.598888	RU
578155	Belaya Kalitva	48.169998	40.779999	RU
525162	Morozovsk	48.353889	41.826111	RU
489062	Staraya Stanitsa	48.349998	40.283333	RU
464130	Masalovka	48.405277	40.270557	RU
706244	Khotyn	48.483334	26.500000	UA
561146	Glubokiy	48.521667	40.325832	RU
705392	Kolomyya	48.530556	25.040277	UA
701091	Mynay	48.583332	22.283333	UA
552999	Kapustin Yar	48.583057	45.737221	RU
701405	Meliorativnoye	48.599998	35.366669	UA
699445	Novomoskovsk	48.616669	35.200001	UA
2016412	Smidovich	48.599998	133.816666	RU
690548	Uzhhorod	48.616669	22.299999	UA
486071	Surovikino	48.607777	42.848610	RU
687826	Zalishchyky	48.644722	25.733889	UA
542213	Krasnoslobodsk	48.707222	44.571388	RU
489446	Srednyaya Akhtuba	48.708889	44.866669	RU
706950	Kamieniec Podolski	48.666668	26.566668	UA
536156	Leninsk	48.711945	45.199444	RU
484396	Tarasovskiy	48.729168	40.363609	RU
2026643	Birobidzhan	48.799999	132.949997	RU
1275339	Mumbai	19.014410	72.847939	IN
689304	Vovchansk	50.300278	36.946667	UA
487928	Staryy Oskol	51.296665	37.841667	RU
472045	Voronezh	51.666389	39.169998	RU
483541	Terbuny	52.138889	38.278889	RU
575343	Bolokhovo	54.093613	37.818333	RU
484287	Tarusa	54.723331	37.176666	RU
540771	Kronshtadt	59.993610	29.773611	RU
535544	Levashovo	60.102222	30.213057	RU
1252797	Yamunanagar	30.100000	77.283333	IN
533543	Lukhovitsy	54.972778	39.036110	RU
506782	Polyany	54.712223	39.823055	RU
490846	Solotcha	54.791668	39.844166	RU
514042	Ostrovtsy	55.593887	37.993610	RU
482260	Tomilino	55.655277	37.925278	RU
532615	Lyubertsy	55.677776	37.883331	RU
515698	Olenegorsk	68.150002	33.299999	RU
533933	Lovozero	68.004997	35.011665	RU
2609894	Yantarnyy	54.871666	19.938057	RU
2023469	Irkutsk	52.297779	104.296387	RU
1283018	Nagarkot	27.700001	85.516670	NP
1175712	Jiwani	25.049999	61.741669	PK
556283	Inza	53.853333	46.358612	RU
473994	Veshkayma	54.049999	47.133331	RU
526354	Mirnyy	54.366669	48.750000	RU
566199	Dimitrovgrad	54.213860	49.618378	RU
479561	Ufa	54.775002	56.037498	RU
479198	Ulu-Telyak	54.908611	56.966946	RU
478071	Ust-Katav	54.936943	58.165558	RU
1495022	Petukhovo	55.069168	67.901947	RU
1520172	Petropavlovsk	54.875278	69.162781	KZ
1522203	Kokshetau	53.277500	69.388336	KZ
1519244	Shchuchinsk	52.933334	70.199997	KZ
1520844	Moyynty	47.221111	73.366943	KZ
1519563	Saryshaghan	46.119167	73.619164	KZ
1519030	Shu	43.598331	73.761391	KZ
1524958	Burunday	43.360279	76.857780	KZ
1526384	Almaty	43.250000	76.949997	KZ
525719	Mokrous	51.233334	47.516666	RU
504000	Pushkino	51.233334	46.983334	RU
505057	Privolzhskiy	51.400002	46.033333	RU
527034	Mikhaylov	54.229168	39.018612	RU
1267154	Khajuraho	24.850000	79.933334	IN
1274369	Chhala	23.299999	72.766670	IN
1279233	Ahmadabad	23.033333	72.616669	IN
1255175	Talaja	21.350000	72.050003	IN
1273287	Delvada	20.766666	71.033333	IN
1272502	Diu	20.714052	70.982239	IN
498677	Saratov	51.566666	46.033333	RU
477301	Valday	57.974724	33.252499	RU
518970	Novocherkassk	47.418056	40.093887	RU
290030	Doha	25.286667	51.533333	QA
569077	Chernaya	55.746113	38.068890	RU
6697077	Kievskij	55.436417	36.898270	RU
468902	Yaroslavl	57.629871	39.873676	RU
456172	Riga	56.950001	24.100000	LV
712374	Berezhani	49.450001	24.933332	UA
515012	Orel	52.965832	36.080276	RU
554318	Kalevala	65.199997	31.166668	RU
563524	Elektrogorsk	55.879444	38.791943	RU
696743	Pokotylivka	49.915279	36.177219	UA
702417	Lyubotyn	49.950001	35.966671	UA
706483	Kharkiv	50.000000	36.250000	UA
465291	Zalegoshch	52.900829	36.886940	RU
474324	Verkhovye	52.811939	37.242500	RU
497610	Seltso	53.367500	34.099998	RU
571476	Bryansk	53.287498	34.380562	RU
464993	Zaokskiy	54.730560	37.408890	RU
501978	Revyakino	54.366940	37.658890	RU
560154	Gorelki	54.274719	37.618328	RU
480562	Tula	54.204441	37.611111	RU
462377	Zmiyevka	52.669720	36.373890	RU
561313	Glazunovka	52.498611	36.327499	RU
462169	Zolotukhino	52.084171	36.377220	RU
538560	Kursk	51.730282	36.193890	RU
578072	Belgorod	50.610001	36.580002	RU
693598	Slatino	50.224171	36.160831	UA
688696	Vysokyy	49.890560	36.119999	UA
697135	Pivdenne	49.881390	36.070000	UA
701347	Merefa	49.819721	36.051941	UA
704363	Krasnopavlivka	49.137218	36.327221	UA
698003	Panyutyne	48.933331	36.283329	UA
687700	Zaporizhzhya	47.816669	35.183331	UA
702072	Malokaterynivka	47.652500	35.253891	UA
696262	Pryshyb	47.260281	35.322781	UA
533008	Lvovskiy	55.314171	37.515831	RU
697889	Pavlohrad	48.516670	35.866669	UA
628175	Haradzishcha	53.316669	26.000000	BY
561679	Gdov	58.740559	27.812220	RU
510347	Pestravka	52.404999	49.958328	RU
145964	Yeri	35.099998	33.416672	CY
2411585	Gibraltar	36.144741	-5.352570	GI
1861454	Isawa	35.650002	138.633331	JP
1852915	Sasaguri	33.616669	130.533325	JP
2112571	Ishioka	36.183331	140.266663	JP
1849796	Tsu-shi	34.730282	136.508606	JP
2111277	Rifu	38.323608	140.974442	JP
1864750	Beppu	33.273609	131.491943	JP
2014927	Tulun	54.561111	100.579170	RU
2021093	Kuytun	54.341942	101.503609	RU
2012702	Zalari	53.558399	102.506500	RU
2021116	Kutulik	53.350830	102.783890	RU
2014022	Usolye-Sibirskoye	52.751942	103.645279	RU
2027667	Angarsk	52.536671	103.886391	RU
2016764	Shelekhov	52.213890	104.099998	RU
2021343	Kultuk	51.720829	103.695557	RU
2016422	Slyudyanka	51.659439	103.706108	RU
2026979	Baykalsk	51.505829	104.146942	RU
2013225	Rechka-Vydrino	51.485001	104.846107	RU
2027276	Babushkin	51.712219	105.864723	RU
2014779	Turuntayevo	52.200001	107.616669	RU
2013986	Ust-Barguzin	53.450001	108.983330	RU
2027109	Barguzin	53.616669	109.616669	RU
2021188	Kurumkan	54.299999	110.300003	RU
577901	Beloozerskiy	55.459782	38.443581	RU
548652	Kimry	56.866669	37.349998	RU
3553478	Havana	23.133020	-82.383041	CU
523523	Nalchik	43.498058	43.618889	RU
1517060	Zaysan	47.466671	84.866669	KZ
2016334	Sokol	51.800362	107.444366	RU
577384	Bereza	53.518330	50.139671	RU
1496153	Omsk	55.000000	73.400002	RU
536206	Yubileyny	55.933331	37.833328	RU
1495797	Ovsyanka	55.957500	92.551941	RU
2019309	Neryungri	56.670898	124.649101	RU
512566	Pargolovo	60.086910	30.271790	RU
2013727	Vanavara	60.340000	102.279716	RU
535806	Leskolovo	60.263409	30.454620	RU
1497543	Nizhnevartovsk	60.934399	76.553101	RU
1503772	Khanty-Mansiysk	61.004169	69.001938	RU
2020221	Markha	62.105282	129.726944	RU
1540356	Raduzhnyy	62.096111	77.474998	RU
2019951	Mirnyy	62.535278	113.961113	RU
479411	Ukhta	63.567051	53.683479	RU
1498087	Nadym	65.533333	72.516670	RU
1496511	Novyy Urengoy	66.083328	76.633331	RU
2014624	Udachnyy	66.416672	112.400002	RU
1493197	Salekhard	66.529999	66.601936	RU
1486910	Vorkuta	67.500000	64.000000	RU
2126123	Chokurdakh	70.633331	147.916672	RU
2015306	Tiksi	71.687218	128.869446	RU
2022572	Khatanga	71.966667	102.500000	RU
2181133	Timaru	-44.400002	171.250000	NZ
3839982	Punta Alta	-38.875881	-62.073589	AR
3430443	Necochea	-38.547260	-58.736752	AR
6241325	Rotorua	-38.138741	176.245163	NZ
2158020	Merimbula	-36.900002	149.899994	AU
2163055	Horsham	-36.716671	142.199997	AU
2176401	Bega	-36.666672	149.833328	AU
3895088	Chillan	-36.606640	-72.103439	CL
2149645	Shepparton	-36.383331	145.399994	AU
3435038	Dolores	-36.313221	-57.679180	AR
2162994	Howlong	-35.966671	146.633331	AU
2147756	Swan Hill	-35.337811	143.554398	AU
2160774	Lake Albert	-35.166672	147.383331	AU
2078025	Adelaide	-34.933331	138.600006	AU
7289886	Fullarton	-34.951000	138.628998	AU
2057897	Woodville	-34.883331	138.550003	AU
6943474	Athelstone	-34.869789	138.702881	AU
3441575	Montevideo	-34.833462	-56.167351	UY
2162733	Ingleburn	-34.000000	150.866669	AU
3361025	Stellenbosch	-33.934620	18.866760	ZA
2171586	Chipping Norton	-33.900002	150.949997	AU
2208305	Dee Why	-33.750000	151.300003	AU
2154219	Orange	-33.283970	149.100174	AU
3441684	Mercedes	-33.252399	-58.030472	UY
2153778	Parkes	-33.133331	148.183334	AU
3883214	Limache	-33.016670	-71.266670	CL
2168305	Dubbo	-32.250000	148.616669	AU
1020641	Beaufort West	-32.356709	22.582951	ZA
1000543	Graaff-Reinet	-32.252151	24.530750	ZA
2165159	Gloucester	-32.000000	151.966675	AU
2173911	Broken Hill	-31.950001	141.433334	AU
2169736	Cundletown	-31.900000	152.533325	AU
2171216	Cobar	-31.500000	145.816666	AU
3440714	Salto	-31.383329	-57.966671	UY
2164206	Gunnedah	-30.983330	150.250000	AU
2177671	Armidale	-30.516670	151.649994	AU
2155742	Narrabri	-30.316669	149.783325	AU
2171085	Coffs Harbour	-30.299999	153.133331	AU
3861824	Chamical	-30.360020	-66.313988	AR
2162662	Inverell	-29.783331	151.116669	AU
2156927	Moree	-29.466669	149.850006	AU
995202	Howick	-29.477949	30.230570	ZA
2167050	Evans Head	-29.116671	153.433334	AU
2172153	Casino	-28.866671	153.050003	AU
2160063	Lismore	-28.813540	153.277298	AU
940909	Welkom	-27.986441	26.706610	ZA
6943556	Taigum	-27.342649	153.044434	AU
2173605	Buderim	-26.683331	153.050003	AU
1017780	Boksburg	-26.211969	28.259581	ZA
3458147	Mafra	-26.111389	-49.805279	BR
982899	Lichtenburg	-26.152000	26.159679	ZA
980921	Mabopane	-25.497681	28.100651	ZA
3453535	Piraquara	-25.441669	-49.063332	BR
933726	Hukuntsi	-24.000000	21.750000	BW
2077895	Alice Springs	-23.700001	133.883331	AU
3471393	Aruja	-23.396111	-46.320831	BR
6354929	Tom Price	-22.693899	117.793098	AU
7262440	Valencia West	32.132381	-111.114143	US
5495380	Tularosa	33.073971	-106.018600	US
6051123	Leamington	42.054901	-82.606201	CA
5920450	Chatham-Kent	42.400089	-82.183098	CA
6165719	Thorold	43.116821	-79.199577	CA
6176823	Waterloo	43.466801	-80.516388	CA
5991370	Keswick	44.250111	-79.466316	CA
6150174	Smiths Falls	44.900108	-76.016068	CA
5978683	Huntingdon	45.083389	-74.165932	CA
6138495	Saint-Jean-sur-Richelieu	45.316780	-73.265862	CA
6122037	Richelieu	45.443359	-73.246017	CA
5923101	Clarence-Rockland	45.550098	-75.291008	CA
6138374	Saint-Hyacinthe	45.616779	-72.949142	CA
6137702	Sainte-Agathe-des-Monts	46.050091	-74.282516	CA
6076211	Moncton	46.115940	-64.801857	CA
6137631	Saint-Come--Liniere	46.066769	-70.515732	CA
6945991	Plessisville	46.218559	-71.762009	CA
5897209	Becancour	46.333359	-72.432411	CA
6945989	Sainte-Marie	46.434010	-71.011681	CA
7535681	Saint-Augustin-de-Desmaures	46.740639	-71.451309	CA
7535692	La Pocatiere	47.348358	-70.061859	CA
7302644	Tracadie-Sheila	47.514439	-64.918060	CA
6137270	Saguenay	48.416752	-71.065727	CA
6354895	Rimouski	48.448792	-68.523956	CA
6166142	Thunder Bay	48.400101	-89.316833	CA
6122085	Richmond	49.170029	-123.136833	CA
6085772	Nanaimo	49.166340	-123.936012	CA
6173331	Vancouver	49.249660	-123.119339	CA
6111632	Port Alberni	49.241329	-124.802803	CA
6078447	Morden	49.191898	-98.101357	CA
5911606	Burnaby	49.266361	-122.952629	CA
6098642	Parksville	49.316330	-124.319450	CA
7281936	West Kelowna	49.862499	-119.583328	CA
6111529	Portage la Prairie	49.972820	-98.292633	CA
6144054	Selkirk	50.143600	-96.884521	CA
5887048	Armstrong	50.449791	-119.202347	CA
5933070	Crossfield	51.433411	-114.035278	CA
5946820	Edson	53.583450	-116.435593	CA
5946768	Edmonton	53.550140	-113.468712	CA
964420	Port Elizabeth	-33.917992	25.570070	ZA
3453639	Pirassununga	-21.996111	-47.425831	BR
933186	Orapa	-21.283331	25.366671	BW
2065594	Mount Isa	-20.733330	139.500000	AU
3353715	Outjo	-20.116671	16.150000	NA
2060436	Tennant Creek	-19.650000	134.199997	AU
3352593	Tsumeb	-19.233330	17.716669	NA
882100	Rusape	-18.527849	32.128429	ZW
3934707	Mollendo	-17.023060	-72.014717	PE
2064735	Nhulunbuy	-12.233330	136.766663	AU
158876	Itumba	-9.400000	33.183331	TZ
155334	Magole	-6.366670	37.366669	TZ
3573650	Tabaquite	10.383330	-61.299999	TT
3645213	Coro	11.404500	-69.673439	VE
1259434	Polur	12.500000	79.133331	IN
1268189	Kanakapura	12.550000	77.416672	IN
1609350	Bangkok	13.750000	100.516670	TH
3600328	Villa Nueva	14.033330	-87.133331	HN
1608057	Pak Chong	14.708020	101.416138	TH
2455290	Kidal	18.441111	1.407780	ML
2446796	Bilma	18.685320	12.916430	NE
3495694	Otra Banda	18.650160	-68.662811	DO
3515302	Toluca	19.288330	-99.667221	MX
3530139	Coyoacan	19.328890	-99.160278	MX
1257896	Sadabad	27.450001	78.050003	IN
6354970	Puerto Rico	27.789431	-15.710450	ES
2521692	Arafo	28.339710	-16.422440	ES
1860112	Kanoya	31.383329	130.850006	JP
1790100	Xiaolingwei	32.033329	118.849998	CN
2467783	Remada	32.316620	10.395510	TN
2263491	Santana	32.799999	-16.883329	PT
1864572	Chikushino-shi	33.496311	130.515594	JP
1849299	Umi	33.566669	130.500000	JP
1848087	Yukuhashi	33.728729	130.983002	JP
1168197	Peshawar	34.007999	71.578491	PK
5301442	Lake of the Woods	34.163929	-109.989548	US
1851426	Sumoto	34.349998	134.899994	JP
1857334	Mihara	34.400002	133.083328	JP
4190542	Dahlonega	34.532589	-83.984909	US
1850034	Tondabayashi	34.500000	135.600006	JP
5322400	Adelanto	34.582771	-117.409218	US
1851717	Shizuoka-shi	34.976940	138.383057	JP
1855416	Niimi	34.983330	133.466675	JP
1854902	Numazu	35.099998	138.866669	JP
1856057	Nagoya-shi	35.181469	136.906403	JP
146268	Nicosia	35.166672	33.366669	CY
1861602	Inazawa	35.250000	136.783325	JP
1855380	Ninomiya	35.303329	139.253326	JP
1861449	Isehara	35.390560	139.307785	JP
1861864	Iida	35.519650	137.820740	JP
1859642	Kawasaki	35.520561	139.717224	JP
1862599	Hino	35.673061	139.400284	JP
1855503	Nerima	35.733330	139.649994	JP
1852502	Shiki	35.833328	139.583328	JP
1851604	Soka	35.820278	139.804443	JP
1907125	Kamifukuoka	35.872501	139.509720	JP
2563232	Attard	35.889721	14.442500	MT
2563191	Birkirkara	35.897221	14.461110	MT
6822108	Inashiki	35.956329	140.323563	JP
1854022	Ono	35.981060	136.487274	JP
1852347	Shimodate	36.299999	139.983337	JP
2112232	Kitaibaraki	36.783329	140.750000	JP
2513509	Moron de la Frontera	37.120838	-5.454030	ES
2110959	Sukagawa	37.283329	140.383331	JP
2525593	Barrafranca	37.379139	14.201070	IT
2523619	Ribera	37.498440	13.264150	IT
2524179	Menfi	37.606640	12.967840	IT
2523850	Pedara	37.616852	15.056690	IT
2524205	Mazara del Vallo	37.664139	12.588040	IT
251280	Zakynthos	37.791389	20.895281	GR
2521694	Aracena	37.893959	-6.561160	ES
260172	Khalandrion	38.030579	23.797930	GR
262135	Galatsi	38.016670	23.750000	GR
257365	Megara	38.000000	23.345560	GR
262752	Elefsina	38.041351	23.542950	GR
257302	Melissia	38.049999	23.833330	GR
2525729	Altofonte	38.042049	13.296240	IT
257811	Mandra	38.066669	23.500000	GR
2524070	Montelepre	38.090450	13.174340	IT
2523630	Reggio Calabria	38.110470	15.661290	IT
2525597	Barcellona-Pozzo di Gotto	38.147560	15.210480	IT
262609	Erythres	38.216671	23.316669	GR
2524170	Messina	38.193272	15.549690	IT
2511102	Santa Pola	38.191650	-0.565800	ES
2518559	Elche	38.262180	-0.701070	ES
2523738	Polistena	38.405979	16.080000	IT
252190	Vasilikon	38.433331	23.666670	GR
2518505	Elda	38.477829	-0.791570	ES
265560	Agrinio	38.621391	21.407780	GR
2512177	Puertollano	38.687119	-4.107340	ES
2271140	Barcarena	38.732449	-9.280000	PT
4270936	Ellis	38.938068	-99.560669	US
2525473	Cagliari	39.207378	9.134620	IT
2524084	Monserrato	39.256111	9.139720	IT
2519880	Casas Ibanez	39.283329	-1.466670	ES
2524844	Dolianova	39.377781	9.175830	IT
5445194	Colby	39.395840	-101.052383	US
2524352	Luzzi	39.446098	16.288290	IT
315985	Edremit	39.596111	27.024441	TR
2111834	Morioka-shi	39.703609	141.152496	JP
258576	Larisa	39.637218	22.420280	GR
3181670	Botrugno	40.064720	18.324430	IT
616417	Metsamor	40.073021	44.289619	AM
3125144	Chinchon	40.140202	-3.422670	ES
3116157	Morata de Tajuna	40.226799	-3.432690	ES
3165084	Tursi	40.245209	16.469690	IT
735563	Kozani	40.301109	21.786390	GR
3165851	Teggiano	40.379211	15.540460	IT
3118155	Loeches	40.383331	-3.400000	ES
3117735	Madrid	40.416500	-3.702560	ES
3170350	Pomarico	40.517818	16.547279	IT
736638	Agia Trias	40.499439	22.876110	GR
736083	Kalamaria	40.582500	22.950279	GR
735764	Chortiatis	40.610481	23.099630	GR
734077	Thessaloniki	40.640282	22.943890	GR
3170027	Potenza	40.644321	15.808570	IT
736450	Nea Ionia	40.688889	22.856939	GR
2129211	Misawa	40.683609	141.359726	JP
4902065	Metamora	40.790588	-89.360641	US
734924	Nigrita	40.905281	23.499439	GR
735861	Kavala	40.939720	24.401939	GR
3164219	Villa Literno	41.009911	14.080520	IT
3166056	Sturno	41.020119	15.110250	IT
5106014	Wanaque	41.038151	-74.294037	US
734330	Serres	41.085560	23.549721	GR
735640	Komotini	41.122780	25.396391	GR
733840	Xanthi	41.141392	24.883610	GR
5160041	Lagrange	41.237282	-82.119873	US
3106492	Valls	41.286121	1.249930	ES
6534279	Piedimonte Matese	41.350819	14.368030	IT
3120619	LHospitalet de Llobregat	41.359669	2.100280	ES
3128760	Barcelona	41.388790	2.158990	ES
3110921	Sant Adria de Besos	41.430729	2.218550	ES
3176885	Foggia	41.460930	15.549250	IT
734880	Orestiada	41.503059	26.529720	GR
3122912	Esparreguera	41.533329	1.866670	ES
3108286	Terrassa	41.566669	2.016670	ES
3118514	Lleida	41.616669	0.616670	ES
3108681	Soria	41.764011	-2.468830	ES
3128978	Balaguer	41.791168	0.810940	ES
3172074	Olevano Romano	41.860619	13.033090	IT
3110983	Salt	41.974892	2.792810	ES
3114531	Palencia	42.016670	-4.533330	ES
3123688	Ejea de los Caballeros	42.126320	-1.137160	ES
3176772	Forano	42.301231	12.589770	IT
4905572	Pecatonica	42.313911	-89.359283	US
3126373	O Carballino	42.431629	-8.078990	ES
3170590	Pizzoli	42.432140	13.311690	IT
3113236	Ponferrada	42.546638	-6.596190	ES
3118532	Leon	42.599998	-5.566670	ES
3106313	Vega de Espinareda	42.725368	-6.654390	ES
2130452	Chitose	42.819439	141.652222	JP
3127850	Bonar	42.866798	-5.323860	ES
3109642	Santiago de Compostela	42.880520	-8.545690	ES
3106090	Bergara	43.115101	-2.417500	ES
3118228	Llodio	43.143219	-2.962040	ES
3165381	Torrita di Siena	43.170238	11.779440	IT
2990919	Narbonne	43.183331	3.000000	FR
3109453	Barakaldo	43.295639	-2.997290	ES
3127224	Cabezon de la Sal	43.308239	-4.235710	ES
3109041	Sestao	43.309750	-3.007160	ES
3028652	Carbonne	43.298569	1.225200	FR
5260694	Lodi	43.313881	-89.526512	US
2995469	Marseille	43.296951	5.381070	FR
4853059	Cresco	43.381359	-92.114052	US
3118304	Llanes	43.419819	-4.754850	ES
3108534	Suances	43.433399	-4.043380	ES
3038493	Aigues-Mortes	43.566830	4.190680	FR
3170798	Pietra la Croce	43.602242	13.538870	IT
3170321	Ponsacco	43.623840	10.629110	IT
3176959	Firenze	43.766670	11.250000	IT
3183147	Altopascio	43.815739	10.673910	IT
3173008	Montecarlo	43.851250	10.668310	IT
3172828	Montemurlo	43.921650	11.031120	IT
3000329	Les Mees	44.030708	5.976810	FR
3028322	Castelsarrasin	44.033329	1.100000	FR
3167373	SantArcangelo di Romagna	44.063259	12.446570	IT
5763011	Box Elder	44.112492	-103.068230	US
3179523	Castelnuovo di Garfagnana	44.121250	10.404600	IT
3181832	Borghetto Santo Spirito	44.111870	8.241290	IT
3174649	Loano	44.127769	8.257430	IT
3179830	Casola Valsenio	44.225060	11.625120	IT
3166228	Spotorno	44.226379	8.416470	IT
3164988	Vado Ligure	44.269138	8.433750	IT
3169670	Quiliano	44.292542	8.412650	IT
5237056	Hinesburg	44.329220	-73.110680	US
5819881	Buffalo	44.348309	-106.698936	US
673382	Mihail Kogalniceanu	44.366669	28.450001	RO
3182244	Beinette	44.364830	7.646730	IT
5769489	Sturgis	44.409710	-103.509079	US
5821593	Cody	44.526340	-109.056534	US
3176467	Fusignano	44.465069	11.957130	IT
5272776	Seymour	44.514992	-88.330383	US
5027765	Gaylord	44.553020	-94.220528	US
3168239	San Giovanni in Persiceto	44.639969	11.184110	IT
3169522	Reggio nellEmilia	44.698250	10.631250	IT
3177090	Ferrara	44.826778	11.620710	IT
3180496	Carmagnola	44.847038	7.718030	IT
3168350	Sangano	45.026138	7.448120	IT
3176130	Giaveno	45.047039	7.349220	IT
3171058	Piacenza	45.046761	9.699370	IT
3164154	Villar Focchiardo	45.112438	7.238410	IT
4991613	East Jordan	45.158058	-85.124229	US
3174922	Legnago	45.183182	11.309100	IT
6535371	San Martino in Strada	45.274971	9.526360	IT
3174638	Lodi	45.313568	9.502860	IT
5039857	Oak Grove	45.340801	-93.326897	US
3177841	Crema	45.358768	9.668260	IT
3164527	Verona	45.434189	10.997790	IT
3169447	Rho	45.530869	9.040140	IT
3177845	Creazzo	45.531990	11.478500	IT
3177651	Dairago	45.567169	8.863240	IT
3178671	Cinisello Balsamo	45.557072	9.221850	IT
668828	Rasnov	45.583328	25.450001	RO
3025668	Chazelles-sur-Lyon	45.638062	4.391300	FR
683844	Brasov	45.648609	25.606131	RO
3172495	Mozzate	45.672169	8.955240	IT
6534247	Verano Brianza	45.688679	9.224540	IT
6535580	Cartigliano	45.713001	11.695600	IT
6534454	Veniano	45.719379	8.989740	IT
3183316	Albino	45.763779	9.796360	IT
667268	Sibiu	45.799999	24.150000	RO
3172067	Olgiate Comasco	45.785381	8.967640	IT
3174543	Lovere	45.811691	10.068960	IT
3179390	Castione della Presolana	45.914391	10.063560	IT
3199523	Grosuplje	45.955559	14.658890	SI
3181207	Caldonazzo	45.994999	11.264680	IT
2659748	Martigny-Ville	46.102760	7.072450	CH
3195281	Medvode	46.133331	14.433330	SI
686254	Arad	46.183331	21.316669	RO
2972774	Thoiry	46.237621	5.981110	FR
2975410	Sciez	46.329090	6.379470	FR
3203611	Bovec	46.337502	13.552780	SI
3177263	Falcade	46.354210	11.865920	IT
6534732	Valdidentro	46.489010	10.294050	IT
3181913	Bolzano	46.492722	11.333580	IT
674826	Letea Veche	46.549999	26.950001	RO
3044062	Tazlar	46.548241	19.514360	HU
3049885	Kiskunfelegyhaza	46.712132	19.844580	HU
2781023	Deutschlandsberg	46.815281	15.222220	AT
2660177	Kehrsatz	46.910351	7.470960	CH
670889	Piatra Neamt	46.916672	26.333330	RO
2971553	Trouy	47.011532	2.360180	FR
701822	Mariupol	47.066669	37.500000	UA
675810	Iasi	47.166672	27.600000	RO
2770885	Nenzing	47.184361	9.705390	AT
2760610	Zeltweg	47.183331	14.750000	AT
2657915	Zofingen	47.287788	7.945860	CH
2764958	Hall in Tirol	47.283329	11.516670	AT
2981512	Saint-Avertin	47.363571	0.739930	FR
2831088	Sonthofen	47.516670	10.283330	DE
2661604	Basel	47.558399	7.573270	CH
2847639	Rheinfelden (Baden)	47.566669	7.800000	DE
665850	Suceava	47.633331	26.250000	RO
2658432	Tagerwilen	47.655941	9.131670	CH
665382	Tautii Magherus	47.650002	23.483330	RO
2763795	Ternitz	47.715649	16.035749	AT
2873291	Marktoberdorf	47.783329	10.616670	DE
669289	Radauti	47.849998	25.916670	RO
2896530	Illmensee	47.866669	9.383330	DE
2822083	Titisee-Neustadt	47.900002	8.166670	DE
2766692	Sankt Georgen im Attergau	47.935951	13.483060	AT
2779378	Frankenmarkt	47.983330	13.416670	AT
2820752	Turkheim	48.066669	10.633330	DE
2843636	Rottweil	48.167831	8.627190	DE
2867714	Muenchen	48.137428	11.575490	DE
2768348	Pressbaum	48.183331	16.083330	AT
2871601	Messstetten	48.183331	8.966670	DE
2917221	Grobenzell	48.200001	11.366670	DE
2761369	Vienna	48.208488	16.372080	AT
2932924	Ehingen	48.282589	9.727490	DE
3058210	Pezinok	48.289860	17.266640	SK
2781017	Deutsch-Wagram	48.299721	16.566669	AT
2948246	Bisingen	48.310120	8.917380	DE
2865376	Neufahrn bei Freising	48.316669	11.666670	DE
2881885	Lahr	48.349998	7.866670	DE
3019372	Etrechy	48.494652	2.194890	FR
2881857	Laichingen	48.489391	9.686120	DE
2865341	Neuffen	48.554600	9.375500	DE
2899880	Holzgerlingen	48.639690	9.011490	DE
2975525	Savigny-sur-Orge	48.676781	2.348350	FR
2876462	Loffenau	48.772141	8.384630	DE
2854840	Perlesreut	48.783329	13.450000	DE
3206285	Urbach	48.816799	9.576900	DE
2996148	Mantes-la-Jolie	48.983330	1.716670	FR
3078610	Brno	49.195221	16.607960	CZ
2909313	Hassloch	49.362782	8.258060	DE
3063196	Velke Mezirici	49.355221	16.012239	CZ
2972811	Thionville	49.366669	6.166670	FR
2910935	Hangard	49.382599	7.210460	DE
2839335	Schifferstadt	49.387218	8.374720	DE
2929863	Eppelheim	49.402500	8.633060	DE
2896468	Ilvesheim	49.474041	8.567400	DE
2953402	Bad Mergentheim	49.492500	9.773610	DE
2859772	Obermichelbach	49.531170	10.908910	DE
2925550	Frankenthal	49.537220	8.355000	DE
3068797	Ostravice	49.535099	18.391640	CZ
2905457	Herzogenaurach	49.567982	10.885650	DE
763534	Nowy Sacz	49.621769	20.697050	PL
3065379	Stara Ves nad Ondrejnici	49.727749	18.188499	CZ
770293	Jaslo	49.745060	21.472521	PL
3064919	Stribro	49.752941	13.004090	CZ
2933019	Eggolsheim	49.771111	11.058060	DE
3062811	Vitkov	49.774448	17.749411	CZ
2869908	Monchberg	49.791389	9.265830	DE
2913598	Guntersblum	49.797501	8.345560	DE
2937591	Dieburg	49.898891	8.844440	DE
3068927	Opava	49.938660	17.902571	CZ
5947708	Elkford	50.050072	-114.885399	CA
773380	Debica	50.051460	21.411409	PL
3067696	Prague	50.088039	14.420760	CZ
2929134	Eschborn	50.133331	8.550000	DE
3029030	Cambrai	50.166672	3.233330	FR
2858738	Oberursel	50.200001	8.583330	DE
766332	Lezajsk	50.262569	22.419319	PL
3031380	Bouchain	50.285191	3.314910	FR
3030799	Boussois	50.289070	4.041170	FR
3038731	Abscon	50.333328	3.300000	FR
2638698	Saint Stephen	50.333328	-4.900000	GB
2906843	Hellenthal	50.483330	6.433330	DE
2939710	Crottendorf	50.516670	12.950000	DE
3037520	Annoeullin	50.529251	2.931800	FR
758252	Staszow	50.563068	21.165930	PL
758445	Stalowa Wola	50.582859	22.053341	PL
3062439	Vrchlabi	50.626968	15.609370	CZ
3096576	Karpacz	50.776691	15.755940	PL
769250	Kielce	50.870331	20.627520	PL
2759350	Beek	50.940830	5.797220	NL
757886	Suchedniow	51.047760	20.829220	PL
3020686	Dunkerque	51.049999	2.366670	FR
2792856	Leopoldsburg	51.116669	5.250000	BE
2647240	Headcorn	51.169659	0.624330	GB
2808559	Willich	51.266670	6.550000	DE
2649322	Fleet	51.283329	-0.833330	GB
2633993	Whyteleafe	51.308079	-0.084290	GB
3083788	Szczercow	51.333191	19.109770	PL
2917816	Grefrath	51.336300	6.340720	DE
2636716	Stratfield Mortimer	51.373390	-1.034950	GB
2655627	Birchington-on-Sea	51.375751	1.304800	GB
760778	Radom	51.402531	21.147141	PL
762199	Pionki	51.476040	21.449949	PL
2635150	Upminster	51.555939	0.255600	GB
6690806	Cranham	51.565651	0.265900	GB
767814	Kozienice	51.582939	21.547791	PL
2639583	Rayleigh	51.585709	0.604590	GB
2653256	Chepstow	51.640869	-2.676830	GB
7303225	Headwood Bolevad	51.677078	-0.438250	GB
2647108	Hengoed	51.650829	-3.231670	GB
6690591	Little Chalfont	51.668289	-0.570380	GB
3093133	Lodz	51.750000	19.466669	PL
2849548	Rees	51.766670	6.400000	DE
2827990	Steinheim	51.870659	9.091360	DE
2758326	Brielle	51.901669	4.162500	NL
2751285	Maassluis	51.923328	4.250000	NL
2888047	Klein Wanzleben	52.066669	11.366670	DE
2745912	Utrecht	52.090832	5.122220	NL
2652941	Clare	52.078609	0.581670	GB
6301921	Kesgrave	52.062408	1.236500	GB
2641591	Newport Pagnell	52.087311	-0.722180	GB
2961120	Tra Mhor	52.162350	-7.152440	IE
2636749	Stowmarket	52.188931	0.997740	GB
2809919	Wettringen	52.209389	7.318950	DE
2753801	Hoofddorp	52.302502	4.688890	NL
770706	Jablonna	52.378849	20.917450	PL
2836746	Schoneiche	52.466671	13.683330	DE
2885657	Berlin Koepenick	52.442539	13.582280	DE
2649568	Feltwell	52.485809	0.519450	GB
2813660	Wathlingen	52.533329	10.150000	DE
2634010	Whittlesey	52.558041	-0.130160	GB
2950159	Berlin	52.524368	13.410530	DE
2848756	Berlin Reinickendorf	52.566669	13.333330	DE
2965768	Carlow	52.840832	-6.926110	IE
2647242	Heacham	52.907822	0.493870	GB
2634493	West Bridgford	52.929790	-1.125370	GB
3101675	Chojna	52.963890	14.427970	PL
2654141	Buxton	53.257408	-1.909820	GB
2634375	West Kirby	53.373020	-3.184170	GB
2642204	Moreton	53.400002	-3.116670	GB
6620310	Didsbury	53.416981	-2.231450	GB
6691248	Chorlton cum Hardy	53.435051	-2.263100	GB
2648405	Glossop	53.443249	-1.949000	GB
3098218	Grudziadz	53.484112	18.753660	PL
2962361	An Muileann gCearr	53.533329	-7.350000	IE
2637435	South Elmsall	53.597092	-1.280340	GB
3101672	Chojnice	53.695541	17.557011	PL
2952633	Bargteheide	53.733330	10.266670	DE
2965471	Claremorris	53.716671	-9.000000	IE
2637958	Shipley	53.833328	-1.766670	GB
2655459	Blackpool	53.816669	-3.050000	GB
764312	Mragowo	53.864368	21.305071	PL
2867527	Munsterdorf	53.902321	9.541230	DE
2650517	Easingwold	54.119099	-1.192250	GB
2894899	Jevenstedt	54.233330	9.666670	DE
5925024	Cold Lake	54.450180	-110.201698	CA
2652676	Cockermouth	54.662090	-3.360860	GB
6173220	Valleyview	55.066730	-117.285851	CA
6050066	La Ronge	55.100128	-105.284218	CA
2618415	Koge	55.458019	12.182140	DK
2702979	Jonkoping	57.781448	14.156180	SE
588335	Tartu	58.380619	26.725090	EE
3162955	Arendal	58.461510	8.772530	NO
2717884	Degerfors	59.237968	14.430770	SE
3145375	Moss	59.434029	10.657710	NO
2718245	Dalby	59.533329	17.350000	SE
6691859	Teekkarikylae	60.189590	24.835020	FI
3147474	Lillehammer	61.115139	10.466280	NO
3145580	Molde	62.737518	7.159120	NO
3415496	Keflavik	64.004921	-22.562420	IS
647741	Lohtaja	64.024719	23.504820	FI
5870294	North Pole	64.751106	-147.349442	US
3157781	Fauske	67.258827	15.391810	NO
5983607	Inuvik	68.349861	-133.721817	CA
5870441	Nuiqsut	70.217499	-150.976395	US
3167269	SantOreste	42.234718	12.519370	IT
3164185	Villanova dAlbenga	44.047249	8.143360	IT
3164175	Villanova sullArda	45.026470	9.998470	IT
3177952	Cortina dAmpezzo	46.536900	12.139030	IT
566891	Dedenevo	56.250000	37.516670	RU
546606	Kokoshkino	55.597691	37.169498	RU
520318	Nizhnyaya Maktama	54.863560	52.428101	RU
553778	Kamenka	43.533329	43.516670	RU
524311	Murino	60.049438	30.445869	RU
495394	Shchekino	54.009171	37.511940	RU
520068	Noginsk	55.866470	38.443802	RU
580227	Avsyunino	55.565159	39.123241	RU
580167	Aysha	55.870350	48.631870	RU
473247	Vladimir	56.136551	40.396580	RU
693805	Simferopol	44.957191	34.110790	UA
488839	Starodzhereliyevskaya	45.475990	38.296799	RU
536219	Lenina	46.066669	39.783329	RU
713154	Askaniya Nova	46.451351	33.868889	UA
706466	Khartsyzsk	48.042431	38.147282	UA
831130	Znamensk	48.584202	45.733799	RU
98463	As Sulaymaniyah	35.561131	45.437489	IQ
504341	Pskov	57.813599	28.349600	RU
1262995	Mirzapur	25.150000	82.583328	IN
1270171	Haveri	14.800000	75.400002	IN
1488754	Tyumen	57.152222	65.527222	RU
3450909	Rondonopolis	-16.470831	-54.635559	BR
1259229	Pune	18.519569	73.855347	IN
294666	Hurfeish	33.017109	35.348351	IL
1260086	Patna	25.600000	85.116669	IN
562625	Firsanovka	55.953609	37.240829	RU
540776	Kromy	52.687618	35.766651	RU
466806	Yoshkar-Ola	56.638771	47.890781	RU
528293	Maykop	44.607780	40.105831	RU
543731	Kotelniki	55.635460	37.844501	RU
498698	Saransk	54.183800	45.174900	RU
2121874	Pravda	46.939560	142.009033	RU
1512236	Abakan	53.715561	91.429169	RU
2013159	Yakutsk	62.033890	129.733063	RU
4718711	Pflugerville	30.439369	-97.620003	US
7260215	Tyndall Air Force Base	30.085350	-85.607307	US
6111704	Port Colborne	42.900120	-79.232880	CA
5126521	Medina	43.220058	-78.386971	US
5935277	Dartmouth	44.671341	-63.577190	CA
7535690	Donnacona	46.680420	-71.723900	CA
6943827	Thetford-Mines	46.093712	-71.305389	CA
7602078	Ladner	49.089378	-123.082413	CA
5586496	Bonners Ferry	48.691330	-116.316307	US
5896522	Beaumont	53.350128	-113.418709	CA
6067747	Matagami	49.750179	-77.632767	CA
6093347	Olds	51.783409	-114.101990	CA
5962582	Golden	51.299950	-116.968903	CA
3470127	Belo Horizonte	-19.920830	-43.937778	BR
3353811	Otjiwarongo	-20.463690	16.647720	NA
933366	Maun	-19.983330	23.416670	BW
890422	Gweru	-19.450001	29.816669	ZW
3469058	Brasilia	-15.779720	-47.929722	BR
1635882	Mataram	-8.583330	116.116669	ID
3676623	Leticia	-4.215280	-69.940559	CO
1640344	Kendari	-3.945000	122.498894	ID
186301	Mombasa	-4.054660	39.663589	KE
198629	Eldoret	0.520360	35.269920	KE
191245	Kisumu	-0.102210	34.761711	KE
3674654	Mocoa	1.149330	-76.646606	CO
3396016	Macapa	0.038890	-51.066391	BR
3674740	Miraflores	1.336670	-71.951111	CO
215771	Isiro	2.773910	27.616030	CD
2234359	Bertoua	4.583330	13.683330	CM
3665900	Villavicencio	4.142000	-73.626640	CO
3671519	Puerto Carreno	6.189030	-67.485878	CO
2220957	Yaounde	3.866670	11.516670	CM
2325330	Owerri	5.483330	7.030410	NG
1716771	Cotabato	7.223610	124.246391	PH
2224827	Ngaoundere	7.316670	13.583330	CM
1679432	Zamboanga	6.910280	122.073891	PH
1729933	Aurora	7.950600	123.582603	PH
1151933	Nakhon Si Thammarat	8.433330	99.966667	TH
2419533	Kindia	10.056920	-12.865760	GN
1717512	Cebu City	10.316720	123.890709	PH
2229798	Kousseri	12.076890	15.030630	CM
3668605	Santa Marta	11.240790	-74.199043	CO
2454268	Koutiala	12.391730	-5.464210	ML
1151074	Prachuap Khiri Khan	11.820980	99.784103	TH
2339937	Gusau	12.162780	6.661350	NG
1264527	Chennai	13.087840	80.278473	IN
2455518	Kayes	14.441700	-11.434100	ML
2451778	San	13.303350	-4.895620	ML
1614295	Phatthaya	12.933330	100.883331	TH
1712813	Gloria	12.983330	121.466667	PH
1690086	Poblacion, San Felipe	15.062220	120.070000	PH
2453348	Mopti	14.493020	-4.194200	ML
2455216	Kita	13.034900	-9.489500	ML
3530597	Mexico City	19.428471	-99.127663	MX
1153669	Chiang Rai	19.908581	99.832497	TH
105343	Jeddah	21.516939	39.219170	SA
1266128	Koraput	18.816669	82.716667	IN
1809858	Guangzhou	23.116671	113.250000	CN
292968	Abu Dhabi	24.466669	54.366669	AE
108410	Riyadh	24.687731	46.721851	SA
289813	Dukhan	25.429720	50.785831	QA
109435	Al Jubayl	27.011221	49.658260	SA
2513798	Mogan	27.883850	-15.725380	ES
1172451	Lahore	31.549721	74.343613	PK
358448	Damanhur	31.039169	30.469139	EG
2643812	Lochmaben	55.130112	-3.442860	GB
1138336	Kandahar	31.613319	65.710129	AF
1886760	Suzhou	31.311390	120.618057	CN
1858421	Kumamoto-shi	32.789719	130.741669	JP
2113164	Abiko	35.866669	140.016663	JP
1139715	Jalalabad	34.426472	70.451530	AF
1790630	Xian	34.258331	108.928612	CN
90150	Tikrit	34.607121	43.678219	IQ
5550192	West Sedona	34.867241	-111.805428	US
1145352	Charikar	35.013611	69.171387	AF
1863945	Fukuroi	34.750000	137.916672	JP
1854383	Okayama-shi	34.661671	133.934998	JP
1147540	Baghlan	36.130680	68.708290	AF
4491651	Siler City	35.723469	-79.462242	US
1850147	Tokyo	35.689499	139.691711	JP
1846986	Andong	36.565559	128.725006	KR
1797929	Qingdao	36.098610	120.371941	CN
4106689	Corning	36.407841	-90.579826	US
2517816	Estepona	36.427639	-5.145890	ES
2514169	Marbella	36.515430	-4.885830	ES
2111258	Ryugasaki	35.900002	140.183334	JP
2521886	Almeria	36.838139	-2.459740	ES
325363	Adana	37.001671	35.328892	TR
1849053	Utsunomiya-shi	36.565830	139.883606	JP
2513709	Monachil	37.133202	-3.537240	ES
2518794	Dos Hermanas	37.282871	-5.920880	ES
298333	Sanliurfa	37.167080	38.793919	TR
2522208	Albolote	37.230881	-3.655100	ES
303195	Osmaniye	37.074169	36.247780	TR
4759735	Fort Lee	37.495701	-77.335258	US
320392	Burdur	37.720280	30.290831	TR
2525068	Catania	37.502129	15.087190	IT
320995	Bodrum	37.038330	27.429171	TR
2510253	Torrevieja	37.978722	-0.682220	ES
4383513	De Soto	38.139500	-90.555130	US
2523920	Palermo	38.115822	13.359760	IT
308464	Kayseri	38.732220	35.485279	TR
5417561	Colorado City	37.945290	-104.835258	US
303290	Ortakoy	38.737282	34.038658	TR
304827	Manisa	38.612019	27.426460	TR
5422191	Fountain	38.682220	-104.700813	US
2516255	Jumilla	38.479172	-1.325000	ES
4377664	Blue Springs	39.016949	-94.281609	US
305268	Kutahya	39.424171	29.983330	TR
325303	Afyonkarahisar	38.756672	30.543329	TR
2510919	Ses Salines	39.338310	3.052740	ES
2523023	Spezzano della Sila	39.301289	16.338699	IT
309647	Agri	39.719440	43.051392	TR
2511930	Requena	39.488338	-1.100440	ES
322165	Balikesir	39.649170	27.886110	TR
4503289	North Beach Haven	39.573170	-74.231529	US
4910663	Savoy	40.054749	-88.251717	US
3124408	Coslada	40.423779	-3.561290	ES
750598	Bilecik	40.141918	29.979321	TR
743952	Kars	40.601990	43.094952	TR
3108126	Teruel	40.345600	-1.106460	ES
5937615	Delta	49.143990	-122.906799	CA
3111108	Salamanca	40.966671	-5.650000	ES
259973	Chios	38.367779	26.135830	GR
3165828	Tempio Pausania	40.897369	9.103520	IT
4868205	Mount Pleasant	40.963638	-91.557938	US
740264	Samsun	41.286671	36.330002	TR
743882	Kastamonu	41.378052	33.775280	TR
3170196	Pontinia	41.410912	13.044100	IT
4905006	Ottawa	41.345589	-88.842583	US
4920512	Fremont	41.730881	-84.932739	US
3115233	Oimbra	41.885540	-7.472160	ES
2513562	Moratalla	38.189281	-1.891830	ES
3181628	Bracciano	42.103062	12.175430	IT
3120514	Huesca	42.136150	-0.408700	ES
3105976	Vigo	42.232819	-8.722640	ES
3116653	Moana	42.283329	-8.750000	ES
3114965	Ourense	42.333328	-7.850000	ES
3119172	Laracha	43.253750	-8.585350	ES
3174112	Manciano	42.587921	11.516250	IT
3110880	San Andres del Rabanedo	42.611740	-5.616710	ES
1854083	Omuta	33.033329	130.449997	JP
3176854	Foligno	42.944038	12.701070	IT
3124002	Curtis	43.083328	-8.066670	ES
5000873	Marine City	42.719479	-82.492126	US
5267785	Portage	43.539150	-89.462624	US
3114711	Oviedo	43.360291	-5.844760	ES
3129329	Arteixo	43.304821	-8.507490	ES
5596475	Idaho Falls	43.466579	-112.034142	US
3108606	Soto del Barco	43.532879	-6.069840	ES
5036062	Luverne	43.654140	-96.212807	US
4979261	South Sanford	43.411190	-70.742561	US
3178957	Cesena	44.139099	12.243150	IT
5767918	Pierre	44.368320	-100.350967	US
5026291	Faribault	44.294960	-93.268829	US
5226534	Brookings	44.311359	-96.798393	US
3181928	Bologna	44.493809	11.338750	IT
5036727	Marshall	44.446899	-95.788353	US
5264475	New Richmond	45.123020	-92.536591	US
5038018	Montevideo	44.942459	-95.723640	US
3166018	Susa	45.137539	7.054610	IT
5043556	Rockford	45.088299	-93.734413	US
3164565	Vercelli	45.323059	8.415330	IT
5042561	Ramsey	45.261101	-93.449997	US
5266230	Park Falls	45.934399	-90.441551	US
3173369	Mirano	45.494438	12.104720	IT
3175627	Jesolo	45.533112	12.644750	IT
5046026	Sauk Centre	45.737461	-94.952522	US
5000625	Manistique	45.957748	-86.246246	US
5038252	Morris	45.586071	-95.913940	US
3165185	Trieste	45.648609	13.780000	IT
3168429	San Dona di Piave	45.631672	12.569440	IT
722437	Bekescsaba	46.683331	21.100000	HU
721592	Csongrad	46.713322	20.142420	HU
673150	Calarasi	44.216671	27.299999	RO
2766824	Salzburg	47.799412	13.043990	AT
3053281	Erd	47.394890	18.913601	HU
2842688	Saalfeld	50.650002	11.366670	DE
2871964	Mengen	48.049511	9.330050	DE
5058868	Devils Lake	48.112782	-98.865120	US
2869120	Mosbach	49.353889	9.142780	DE
2877550	Lindau	47.549999	9.683330	DE
2831948	Sindelfingen	48.700001	9.016670	DE
3057630	Skalica	48.844898	17.226351	SK
3061186	Banska Bystrica	48.739460	19.153490	SK
723846	Poprad	49.061440	20.297979	SK
3068293	Pisek	49.308800	14.147500	CZ
3068830	Oslavany	49.123348	16.336531	CZ
2948825	Bingen am Rhein	49.966671	7.900000	DE
2956656	Amberg	49.441391	11.862220	DE
3068160	Plzen	49.747471	13.377590	CZ
2903806	Hirschau	49.544998	11.950830	DE
2829758	Stadtlohn	51.983330	6.933330	DE
3070325	Moravska Trebova	49.757931	16.664261	CZ
2836320	Schorndorf	48.805370	9.527210	DE
3074967	Hradec Kralove	50.209229	15.832770	CZ
3210390	Marktrodach	50.250000	11.383330	DE
3074110	Jirkov	50.499790	13.447690	CZ
2784199	Waimes	50.414879	6.112070	BE
2935022	Dresden	51.050892	13.738320	DE
2651048	Dover	51.133331	1.300000	GB
2934246	Dusseldorf	51.221722	6.776160	DE
2855745	Paderborn	51.719051	8.754390	DE
2750630	Monster	52.025829	4.175000	NL
2828105	Steinfurt	52.150452	7.336640	DE
2960964	Loch Garman	52.334171	-6.457500	IE
2638717	Saint Neots	52.216671	-0.266670	GB
2804313	Ziemetshausen	48.292439	10.535030	DE
3310247	Shannon	52.703892	-8.864170	IE
2963436	Kildare	53.156109	-6.914440	IE
2960936	Wicklow	52.974998	-6.049440	IE
2962029	Portarlington	53.162220	-7.191110	IE
6179602	Wetaskiwin	52.966831	-113.368690	CA
2693678	Lund	55.705841	13.193210	SE
2619068	Karup	56.306728	9.168350	DK
2615006	Randers	56.466671	10.050000	DK
2708365	Halmstad	56.674461	12.856760	SE
2663536	Vaexjoe	56.877670	14.809060	SE
2686657	Orebro	59.274120	15.206600	SE
2676176	Soedertaelje	59.195541	17.625250	SE
2673730	Stockholm	59.332581	18.064899	SE
6138201	Saint-Felicien	48.650070	-72.449059	CA
3134070	Tranby	59.816669	10.250000	NO
6185377	Yellowknife	62.456001	-114.352547	CA
650859	Kouvola	60.866669	26.700001	FI
2676224	Soderhamn	61.303730	17.059210	SE
5858289	Butte	61.542221	-149.033325	US
655194	Jyvaeskylae	62.233330	25.733330	FI
2671530	Storuman	65.095901	17.117310	SE
2702997	Jokkmokk	66.606651	19.823240	SE
652590	Kittila	67.666672	24.900000	FI
508606	Pochinok	54.406849	32.440670	RU
2335727	Kaduna	10.522240	7.438280	NG
508101	Podolsk	55.424179	37.554722	RU
2068079	Kwinana	-32.250000	115.766670	AU
2803560	Zwickau	50.733330	12.500000	DE
3573374	The Valley	18.217039	-63.057831	AI
2140691	Kone	-21.059509	164.865814	NC
2150660	Saint Kilda	-37.867599	144.980988	AU
2146142	Townsville	-19.250000	146.800003	AU
3456283	Niteroi	-22.883329	-43.103611	BR
3127978	Blanes	41.674191	2.790360	ES
2645442	Kingsteignton	50.549999	-3.583330	GB
265500	Aigio	38.248611	22.081940	GR
3013361	Hesingue	47.576210	7.522440	FR
3164383	Vigarano Mainarda	44.840080	11.494710	IT
3177363	Ercolano	40.806309	14.360930	IT
2809517	Wiehl	50.950001	7.533330	DE
2066052	Moana	-35.200001	138.483337	AU
3428071	Santo Tome	-28.549391	-56.040771	AR
3859512	Dean Funes	-30.420361	-64.349838	AR
3111199	Sabadell	41.543289	2.109420	ES
3129857	Aranjuez	40.031078	-3.602460	ES
256223	Ovria	38.183331	21.716669	GR
2637853	Sidmouth	50.690941	-3.239700	GB
2510301	Torredonjimeno	37.767479	-3.957760	ES
3113082	Portugalete	43.320992	-3.020640	ES
2184155	Pukekohe East	-37.200001	174.949997	NZ
2979783	Saint-Germain-en-Laye	48.900002	2.083330	FR
2869791	Monheim	51.083328	6.883330	DE
4566447	Olimpo	18.001909	-66.108223	PR
2510279	Torrent	39.437050	-0.465460	ES
3178738	Ciampino	41.801620	12.606580	IT
2958376	Allershausen	48.433331	11.600000	DE
3182734	Asola	45.221081	10.413580	IT
3180991	Campobasso	41.560032	14.667530	IT
4272558	Halstead	38.001400	-97.508652	US
678688	Dumbravita	45.796940	21.242500	RO
2928810	Essen	51.450001	7.016670	DE
2149475	Singleton	-32.566669	151.183334	AU
6058560	London	42.983391	-81.233040	CA
2633373	Yeovil	50.941589	-2.632110	GB
2644993	Lambourn	51.508049	-1.531050	GB
2922102	Geesthacht	53.433331	10.366670	DE
2658216	Uster	47.347130	8.720910	CH
265488	Acharnes	38.083328	23.733330	GR
2644577	Leven	56.200001	-3.000000	GB
726320	Troyan	42.894272	24.715891	BG
730919	Ikhtiman	42.433331	23.816669	BG
3109718	Santander	43.464722	-3.804440	ES
2813464	Wedel	53.583740	9.698350	DE
2654728	Bridlington	54.083061	-0.191920	GB
2511420	Sencelles	39.645981	2.897690	ES
3094086	Kwidzyn	53.724949	18.931141	PL
2510580	Teba	36.983582	-4.919130	ES
673807	Marginea	47.816669	25.816669	RO
3175840	Gressan	45.720661	7.286900	IT
2646828	Histon	52.251659	0.106430	GB
4588936	New Ellenton	33.421532	-81.685669	US
2986220	Pont-du-Casse	44.228668	0.679240	FR
3107775	Torrelavega	43.349442	-4.047850	ES
2649963	Epping	51.698151	0.110550	GB
6144312	Sept-Iles	50.200111	-66.382080	CA
3128201	Berga	42.104290	1.846280	ES
2640526	Peebles	55.651901	-3.188800	GB
2512127	Pucol	39.616669	-0.300000	ES
2164149	Guyra	-30.233330	151.666672	AU
4951699	Spencer	42.243980	-71.992302	US
2915128	Gross-Rohrheim	49.721111	8.482780	DE
2996905	Machecoul	46.993580	-1.823520	FR
2640559	Paulton	51.304722	-2.500280	GB
2638878	Saffron Walden	52.023369	0.242340	GB
2177756	Ararat	-37.283329	142.933334	AU
2825108	Suderlugum	54.866669	8.916670	DE
2757991	Castricum	52.548328	4.669440	NL
2989460	Orange	44.139198	4.807910	FR
2643186	Maidenhead	51.522789	-0.719860	GB
2929872	Epfenbach	49.339169	8.907780	DE
2913972	Gschwend	48.933331	9.744360	DE
2818766	Unterschleissheim	48.283329	11.566670	DE
2160297	Leura	-33.716671	150.333328	AU
6944112	Forestville	48.738079	-69.084778	CA
2651930	Cromer	52.931229	1.298920	GB
2740313	Covilha	40.286011	-7.503960	PT
2755204	Grootegast	53.212502	6.273610	NL
3182164	Bergamo	45.697979	9.668950	IT
2949012	Bietigheim-Bissingen	48.966671	9.133330	DE
2960970	Westport	53.799999	-9.516670	IE
2638027	Sherburn in Elmet	53.795189	-1.246600	GB
5964700	Greater Sudbury	46.490002	-80.990013	CA
971421	Newcastle	-27.757959	29.931801	ZA
2982757	Rosny-sous-Bois	48.870171	2.499100	FR
2062338	Rockingham	-32.283329	115.716667	AU
349340	Sharm ash Shaykh	27.851830	34.304989	EG
1007311	Durban	-29.857901	31.029200	ZA
2994043	Meze	43.425041	3.605900	FR
2822100	Tirschenreuth	49.882500	12.333060	DE
1167718	Punch	33.767879	74.089737	IN
1261913	Nangloi Jat	28.683331	77.066673	IN
3172768	Monterotondo	42.052521	12.618680	IT
2861402	Oberasbach	49.422749	10.957660	DE
7669012	Walnut Grove	49.164730	-122.640419	CA
5798318	Indianola	47.747040	-122.525688	US
2751738	Lelystad	52.508331	5.475000	NL
2515708	Lanjaron	36.918530	-3.481800	ES
2986795	Plerin	48.542488	-2.779840	FR
6535757	Turate	45.657269	9.004240	IT
3165576	Tombolo	45.639500	11.825400	IT
2867160	Nahe	53.799999	10.133330	DE
3352844	Swakopmund	-22.683331	14.533330	NA
2653279	Cheddleton	53.069099	-2.042280	GB
1847966	Akashi	34.633331	134.983337	JP
6095645	Owen Sound	44.567169	-80.943489	CA
3117814	Lugo	43.000000	-7.566670	ES
3012649	Issy-les-Moulineaux	48.821041	2.277180	FR
2634573	Wellington	52.700001	-2.516670	GB
3061734	Zbysov	49.155239	16.349510	CZ
2519466	Xirivella	39.465881	-0.425890	ES
3044760	Szekszard	46.350140	18.709049	HU
3023107	Courcelles-Chaussy	49.108620	6.403910	FR
785082	Tetovo	42.010559	20.971390	MK
3182153	Bernalda	40.412819	16.691990	IT
6535071	Donnas	45.602859	7.774910	IT
6534790	Tirolo - Tirol	46.691021	11.154270	IT
2841590	Sankt Ingbert	49.283329	7.116670	DE
2463679	Kerkyra	39.619999	19.919720	GR
1258847	Rajkot	22.299999	70.783333	IN
2644726	Leatherhead	51.295929	-0.325900	GB
2665902	Vadstena	58.448631	14.889690	SE
3168865	Roverbella	45.268082	10.768790	IT
3463605	Farroupilha	-29.225000	-51.347778	BR
3178521	Cocquio Trevisago	45.862881	8.688230	IT
2636928	Steyning	50.887440	-0.327870	GB
5895650	Beaconsfield	45.433411	-73.865860	CA
2643198	Maghull	53.516190	-2.941170	GB
2619771	Horsens	55.860661	9.850340	DK
6232082	Pakuranga	-36.883331	174.916672	NZ
2975785	Saulx-les-Chartreux	48.690620	2.267270	FR
5942845	Drummondville	45.883362	-72.482407	CA
2642974	Marske-by-the-Sea	54.591469	-1.019590	GB
3621184	Turrialba	9.904670	-83.683517	CR
3623369	Jaco	9.614970	-84.629753	CR
1727993	Baliwagan	10.397100	122.891098	PH
2653346	Chard	50.872700	-2.965970	GB
3571824	Nassau	25.058229	-77.343063	BS
2964472	Dunshaughlin	53.512501	-6.540000	IE
3020810	Dreux	48.733330	1.366670	FR
2509929	Valldemossa	39.710419	2.622300	ES
2640045	Porthmadog	52.929241	-4.131370	GB
6077243	Montreal	45.508839	-73.587807	CA
6138610	Saint-Laurent	45.500080	-73.665848	CA
2525041	Cefalu	38.038559	14.022850	IT
2509841	Valverde	27.806280	-17.915779	ES
2163355	Hobart	-42.879360	147.329407	AU
4564133	Dorado	18.458830	-66.267670	PR
2800816	Buggenhout	51.015900	4.201730	BE
3169700	Quarto dAltino	45.579441	12.373330	IT
2633808	Winslow	51.942841	-0.881310	GB
2067260	Maddington	-32.049999	115.983330	AU
3168616	Saludecio	43.875160	12.667050	IT
2804642	Zeven	53.299999	9.283330	DE
3188225	Velika Kladusa	45.189442	15.811670	BA
2643071	March	52.551311	0.088280	GB
2755030	Haaksbergen	52.156670	6.738890	NL
2647198	Heckmondwike	53.706459	-1.677470	GB
2653290	Cheadle Hulme	53.376099	-2.189700	GB
6535581	Gambellara	45.459789	11.340100	IT
2658714	Schoftland	47.305721	8.051380	CH
3985604	San Luis Rio Colorado	32.463058	-114.776672	MX
2653715	Carnforth	54.116669	-2.766670	GB
3003391	Le Mesnil-Esnard	49.413189	1.145210	FR
3134865	Tananger	58.933331	5.600000	NO
2657859	Abbotts Ann	51.189861	-1.531260	GB
2169956	Cronulla	-34.049999	151.149994	AU
2526435	Zaio	34.942822	-2.732900	MA
3065684	Smrzovka	50.738201	15.246390	CZ
2655664	Billingham	54.608280	-1.292140	GB
3415212	Kopavogur	64.112343	-21.912979	IS
2164129	Gympie	-26.189791	152.664993	AU
2897557	Hundsangen	50.450001	7.983330	DE
5989045	Kamloops	50.666481	-120.319199	CA
665087	Timisoara	45.749439	21.227221	RO
2857565	Ohringen	49.201672	9.503890	DE
7536148	Priozersk	46.031059	73.702469	KZ
6094578	Oshawa	43.900120	-78.849571	CA
3166350	Sorrento	40.626011	14.374410	IT
2654634	Broadstone	50.750000	-1.983330	GB
3179297	Cavaria	45.693371	8.801430	IT
5993072	Kitimat	54.052441	-128.653427	CA
2636531	Sunderland	54.904652	-1.382220	GB
3123981	Daganzo de Arriba	40.542931	-3.454570	ES
3177140	Favria	45.331150	7.690620	IT
3164630	Velletri	41.669220	12.779290	IT
2637487	Southampton	50.903950	-1.404280	GB
5970234	Hanna	51.633430	-111.901810	CA
2890420	Kirchlinteln	52.950001	9.316670	DE
2744483	Wijk bij Duurstede	51.974171	5.341670	NL
2637087	Stanford-le-Hope	51.522739	0.434220	GB
3181018	Campi Bisenzio	43.824551	11.132420	IT
2985849	Pouillon	43.604801	-0.999470	FR
2810136	Westhausen	48.883331	10.183330	DE
2637111	Stalbridge	50.958069	-2.375480	GB
3179323	Cavallino	40.312531	18.200420	IT
2924802	Friedberg	50.349998	8.766670	DE
2163237	Home Hill	-19.666670	147.416672	AU
3182399	Barbarano Vicentino	45.409489	11.544400	IT
2990392	Nieppe	50.704250	2.835060	FR
2270184	Carcavelos	38.691051	-9.322150	PT
3017512	Fourmies	50.015320	4.047840	FR
2634617	Wednesbury	52.551399	-2.023550	GB
4939693	Holliston	42.200100	-71.424500	US
2651324	Dersingham	52.845490	0.503390	GB
2749812	Noordwijk-Binnen	52.235828	4.447220	NL
2883236	Krun	47.500000	11.283330	DE
3171366	Pavia	45.184460	9.161450	IT
6535134	Montagna in Valtellina	46.178501	9.902950	IT
2759633	Assen	52.996670	6.562500	NL
3038555	Aiffres	46.294491	-0.421010	FR
2150163	Sawtell	-30.383329	153.100006	AU
3121519	Gava	41.306049	2.001230	ES
3531673	Cancun	21.174290	-86.846558	MX
1858756	Kosai-shi	34.718399	137.531754	JP
2510245	Torrox	36.757931	-3.952330	ES
2955822	Apelern	52.289791	9.335800	DE
2921242	Georgsmarienhutte	52.200001	8.050000	DE
3175058	Latina	41.466141	12.904300	IT
4098161	Winfield	33.928989	-87.817253	US
2206068	New Town	-42.860001	147.308334	AU
3130492	Aldeanueva de la Vera	40.127102	-5.701500	ES
2744042	Zandvoort	52.374870	4.534090	NL
2647261	Hayes	51.515789	-0.423400	GB
3174380	Macerata	43.298161	13.441080	IT
5894171	Barrie	44.400108	-79.666344	CA
2522259	Alaior	39.930340	4.140390	ES
7932651	Bentleigh East	-37.920101	145.059875	AU
2636049	Thatcham	51.403660	-1.260490	GB
2919880	Glinde	53.549999	10.200000	DE
2658504	Stans	46.958450	8.366000	CH
2641555	Newton Aycliffe	54.618420	-1.571900	GB
2635937	Thrapston	52.396751	-0.539200	GB
2649210	Forest Row	51.096409	0.032620	GB
2648372	Godalming	51.184620	-0.617250	GB
1273909	Churachandpur	24.333330	93.666672	IN
2834129	Schworstadt	47.593140	7.878400	DE
6693245	Knaphill	51.318920	-0.615410	GB
2943320	Bruhl	50.829281	6.904990	DE
4456121	Black Mountain	35.617901	-82.321228	US
255524	Peristeri	38.016670	23.700001	GR
5884467	Amherst	45.833450	-64.198738	CA
6544881	Amsterdam-Zuidoost	52.307499	4.972220	NL
2189529	Invercargill	-46.400002	168.350006	NZ
2644559	Lewes	50.873631	0.011330	GB
2076378	Blackwood	-35.016670	138.616669	AU
2651311	Desborough	52.441830	-0.821260	GB
2658986	Romanel	46.566669	6.604530	CH
2813344	Wegscheid	48.601360	13.787330	DE
2853200	Pliening	48.195560	11.800690	DE
3209953	Overcombe	50.635090	-2.432070	GB
3471910	Apucarana	-23.550831	-51.460831	BR
2748533	Poeldijk	52.024170	4.219440	NL
2866087	Neubukow	54.033329	11.666670	DE
2145214	Victoria Point	-27.583330	153.300003	AU
3854895	Granadero Baigorria	-32.856831	-60.717541	AR
2661228	Cham	47.182129	8.463580	CH
3166182	Stazzano	44.727348	8.869950	IT
3182221	Bellinzago Novarese	45.568771	8.643230	IT
3162651	Askim	59.583260	11.162860	NO
2266961	Lourinha	39.233330	-9.316670	PT
6183141	Wingham	43.887932	-81.311447	CA
6173864	Vernon	50.258091	-119.269051	CA
2736930	Ovar	40.858620	-8.625130	PT
3126888	Cambrils	41.074791	1.052440	ES
2638600	Sandbach	53.145149	-2.362510	GB
3165647	Tirano	46.215401	10.167860	IT
3166989	Scandiano	44.596458	10.690700	IT
3530103	San Miguel de Cozumel	20.508329	-86.945831	MX
3688689	Bogota	4.609710	-74.081749	CO
3117164	Mataro	41.542110	2.444500	ES
7288344	Vik	61.057121	6.578060	NO
2647461	Harlow	51.776550	0.111580	GB
2656947	Ashington	50.933121	-0.390870	GB
2645163	Knaresborough	54.009102	-1.468510	GB
5955815	Fort Erie	42.900120	-78.932861	CA
2851746	Pulheim	51.000000	6.800000	DE
2510764	Sueca	39.202599	-0.311140	ES
2651561	Dalry	55.683331	-4.716670	GB
3582672	Belmopan	17.250000	-88.766670	BZ
2749164	Ouddorp	51.811668	3.934720	NL
3842670	Olavarria	-36.892719	-60.322540	AR
2657896	Zurich	47.366669	8.550000	CH
2658007	Zuerich (Kreis 3) / Alt-Wiedikon	47.362011	8.514970	CH
2652877	Cleland	55.802429	-3.914200	GB
2180995	Tokoroa	-38.233330	175.866669	NZ
2641599	Newport	50.701462	-1.291240	GB
2647644	Hale	51.216671	-0.783330	GB
6535097	Casale Litta	45.767872	8.741330	IT
2155472	Newcastle	-32.927151	151.776474	AU
3077920	Ceska Trebova	49.904362	16.444130	CZ
3016078	Gif-sur-Yvette	48.683331	2.133330	FR
2759706	Apeldoorn	52.209999	5.969440	NL
2871045	Mindelheim	48.049999	10.483330	DE
643153	Paimio	60.456711	22.686939	FI
3165524	Torino	45.070492	7.686820	IT
2976695	Saint-Vallier-de-Thiey	43.695389	6.844300	FR
3129877	Aranda de Duero	41.670410	-3.689200	ES
5964304	Grande Cache	53.883350	-119.135849	CA
3491948	Villa Bisono	19.563780	-70.875816	DO
3510969	Cabarete	19.749821	-70.408287	DO
2634755	Warminster	51.204342	-2.178730	GB
2161311	Kingston	-42.966671	147.316666	AU
3036903	Armentieres	50.685680	2.882140	FR
2756139	Emmeloord	52.710831	5.748610	NL
2634032	Whitley Bay	55.039730	-1.447130	GB
3178619	Citta di Castello	43.469051	12.230450	IT
8050879	Iturrama	42.808472	-1.658250	ES
3181102	Camerano	43.531261	13.551580	IT
2895913	Insheim	49.158058	8.147220	DE
2748729	Papendrecht	51.831669	4.687500	NL
3177828	Crespano del Grappa	45.825401	11.833700	IT
2748371	Raalte	52.385830	6.275000	NL
2754692	Heemstede	52.349918	4.623010	NL
2654668	Briton Ferry	51.631062	-3.818980	GB
3038142	Allennes-les-Marais	50.537540	2.953610	FR
736694	Asprovalta	40.716671	23.700001	GR
2652617	Cold Ash	51.424259	-1.264630	GB
2988063	Penta-di-Casinca	42.466869	9.459020	FR
2655785	Beverley	53.845871	-0.423320	GB
2516395	Jaen	37.766670	-3.783330	ES
5926268	Colwood	48.432930	-123.485909	CA
2069646	Hope Valley	-34.833328	138.699997	AU
3131093	Abegondo	43.216671	-8.283330	ES
2511329	San Juan de Aznalfarache	37.358120	-6.037310	ES
2747034	Soest	52.173328	5.291670	NL
3168913	Rossano Veneto	45.705799	11.806000	IT
786714	Pristina	42.672722	21.166880	XK
3471039	Balneario Camboriu	-26.990561	-48.634720	BR
2759016	Beuningen	51.860828	5.766670	NL
2635703	Tonbridge	51.192421	0.275320	GB
733905	Veroia	40.523331	22.203609	GR
2512825	Pedreguer	38.793121	0.034110	ES
251833	Volos	39.366669	22.945829	GR
2511388	San Fernando	36.475899	-6.198170	ES
2525448	Caltanissetta	37.487740	14.044970	IT
3179837	Casirate dAdda	45.496780	9.566260	IT
2638019	Sheringham	52.940781	1.209310	GB
5749213	Rogue River	42.435951	-123.171997	US
2650628	Durham	54.776760	-1.575660	GB
2754659	Heerhugowaard	52.671440	4.848620	NL
2984741	Quiberon	47.484119	-3.119620	FR
2513167	Ogijares	37.119129	-3.607720	ES
3176405	Galbiate	45.816181	9.378040	IT
2755485	Goedereede	51.817501	3.980560	NL
2756644	Drachten	53.112541	6.098900	NL
3031582	Bordeaux	44.840439	-0.580500	FR
2939819	Coswig	51.883331	12.450000	DE
2756865	Dieren	52.052502	6.100000	NL
2652997	Cinderford	51.824211	-2.498700	GB
3119027	Lasarte	43.267738	-2.021690	ES
2748413	Purmerend	52.505001	4.959720	NL
8131396	Breakeyville	46.680370	-71.223267	CA
2660038	La Neuveville	47.068401	7.099550	CH
2515692	La Orotava	28.390760	-16.523090	ES
6941548	Ypenburg	52.040981	4.369810	NL
2758838	Bleiswijk	52.010830	4.531940	NL
3051516	Hered	47.706379	19.633141	HU
2755358	Grave	51.759022	5.738820	NL
2650732	Dunfermline	56.071560	-3.458870	GB
2059589	Unley	-34.950001	138.600006	AU
2521964	Aljaraque	37.269901	-7.023120	ES
2510911	Sevilla	37.382408	-5.976130	ES
2756569	Drimmelen	51.706669	4.804170	NL
770157	Jedrzejow	50.639450	20.304541	PL
5830007	Lander	42.833012	-108.730667	US
2951825	Bayreuth	49.948059	11.578330	DE
5943865	Duncan	48.782928	-123.702660	CA
671768	Oradea	47.066669	21.933331	RO
3169984	Pozzuoli	40.831959	14.110010	IT
2660999	Domdidier	46.867161	7.013370	CH
3107418	Tudela	42.061661	-1.604520	ES
2932382	Eichenau	48.166672	11.316670	DE
2782043	Bad Voslau	47.965328	16.213591	AT
3178125	Corbetta	45.467232	8.918670	IT
2757872	Culemborg	51.955002	5.227780	NL
6620355	Bowthorpe	52.638840	1.218850	GB
2910167	Hartenstein	50.666672	12.683330	DE
606086	Gaellivare	67.133873	20.652781	SE
2747182	Sleen	52.771671	6.802780	NL
2612629	Stenlose	55.768280	12.197230	DK
616743	Druzhkovka	48.630131	37.552589	UA
711621	Borova	50.176250	30.104290	UA
2759621	Asten	51.404171	5.748610	NL
1693778	Pililla	14.485400	121.306198	PH
6118158	Red Deer	52.266819	-113.802002	CA
2633708	Wokingham	51.411201	-0.835650	GB
726890	Stamboliyski	42.133331	24.533331	BG
2639912	Preston	53.766670	-2.716670	GB
3174254	Maglie	40.118420	18.298929	IT
3102679	Branice	50.051079	17.793989	PL
5918021	Casselman	45.316799	-75.082603	CA
3165365	Tortoreto	42.809052	13.911600	IT
5440516	Strasburg	39.738319	-104.323288	US
2658377	Thun	46.751179	7.621660	CH
2058430	Whyalla	-33.033329	137.583328	AU
6137633	Saint-Constant	45.366779	-73.565880	CA
2651181	Doddington	52.496712	0.060170	GB
3132208	Vennesla	58.269360	7.974130	NO
2643029	Market Deeping	52.676540	-0.316290	GB
5101873	North Arlington	40.788429	-74.133202	US
2746609	Strijen	51.745209	4.550830	NL
3105184	Vilanova i la Geltru	41.223919	1.725110	ES
2646073	Inverurie	57.284458	-2.377360	GB
3646738	Caracas	10.488010	-66.879189	VE
2519240	Cordoba	37.883331	-4.766670	ES
2649715	Falmouth	50.154411	-5.071130	GB
3180940	Campomorone	44.509541	8.885020	IT
2637546	Solihull	52.414261	-1.780940	GB
2941173	Burgrieden	48.233330	9.933330	DE
2828871	Steinau an der Strasse	50.314011	9.463350	DE
2990463	Nexon	45.679619	1.185550	FR
2635022	Valley	53.284901	-4.566440	GB
2646658	Honiton	50.799599	-3.188990	GB
2758462	Boxmeer	51.646671	5.947220	NL
2646355	Hurstpierpoint	50.933880	-0.180070	GB
6354969	Playa del Ingles	27.756701	-15.578700	ES
1013550	Christiana	-27.914021	25.161110	ZA
2745321	Voorburg	52.074169	4.359720	NL
2753011	Katwijk aan den Rijn	52.194172	4.422220	NL
3616234	Somotillo	13.043280	-86.906448	NI
3580661	George Town	19.286921	-81.367058	KY
2205979	Gymea Bay	-34.049999	151.083328	AU
2208292	Gladesville	-33.833328	151.133331	AU
2207809	Hunters Hill	-33.833328	151.140823	AU
2642214	Morecambe	54.068352	-2.861080	GB
2755619	Geldrop	51.421669	5.559720	NL
2643116	Mangotsfield	51.487801	-2.504030	GB
3650121	Yaguachi	-2.116670	-79.683327	EC
2647497	Hardingstone	52.213581	-0.885820	GB
3112989	Pozuelo de Alarcon	40.432930	-3.813380	ES
2650122	Elgin	57.650002	-3.333330	GB
3195506	Maribor	46.554722	15.646670	SI
2510394	Tomares	37.372810	-6.045890	ES
3448439	Sao Paulo	-23.547501	-46.636108	BR
2158744	Margate	-43.033329	147.266663	AU
2158504	Matraville	-33.950001	151.233337	AU
2871990	Memmingerberg	47.985729	10.177030	DE
2079692	Leanyer	-12.366670	130.899994	AU
3168255	San Giovanni Bianco	45.873878	9.653450	IT
2743856	Zoetermeer	52.057499	4.493060	NL
3116553	Mollet del Valles	41.540260	2.213060	ES
294074	Ness Ziona	31.929331	34.798679	IL
5755890	Talent	42.245682	-122.788651	US
2633709	Woking	51.319031	-0.558930	GB
5445479	Goodland	39.350830	-101.710167	US
3145080	Naerbo	58.666672	5.650000	NO
2642313	Monmouth	51.812649	-2.713630	GB
2636408	Sway	50.786850	-1.602940	GB
2647655	Hailsham	50.862202	0.257750	GB
2646525	Houghton-le-Spring	54.840340	-1.464270	GB
2651852	Crowborough	51.060440	0.161710	GB
3170316	Pont Canavese	45.422859	7.596210	IT
6087701	Newmarket	44.050110	-79.466309	CA
5051594	Wabasha	44.383862	-92.032944	US
2791494	Meerhout	51.132099	5.078420	BE
2513416	Murcia	37.987041	-1.130040	ES
3179382	Castrignano deGreci	40.173420	18.296431	IT
2656792	Audley	53.049999	-2.300000	GB
620181	Vilyeyka	54.489601	26.906240	BY
2518949	Cullera	39.166672	-0.250000	ES
2523872	Partanna	37.727840	12.888540	IT
764241	Muszyna	49.356609	20.897181	PL
2997556	Lormont	44.874950	-0.517820	FR
2992978	Montauroux	43.619049	6.775000	FR
2754656	Heerjansdam	51.835831	4.563890	NL
6695204	Barnwood	51.863930	-2.200870	GB
2264009	Redondo	38.648720	-7.547080	PT
1265169	Lalganj	25.933331	81.699997	IN
3008665	Laille	47.978481	-1.716760	FR
6535867	Cavagnolo	45.151749	8.049030	IT
3168858	Roveredo in Piano	46.003891	12.617780	IT
6325521	Levis	46.803261	-71.177933	CA
2984759	Quevert	48.464020	-2.087450	FR
2750624	Montfort	51.125832	5.948610	NL
3063546	Usti nad Orlici	49.973869	16.393610	CZ
2751424	Losser	52.260830	7.004170	NL
3130616	Alcala de Henares	40.482052	-3.359960	ES
2825297	Stuttgart	48.782318	9.177020	DE
2927043	Stuttgart Feuerbach	48.808670	9.157190	DE
736357	Edessa	40.800560	22.047220	GR
2511064	Santiponce	37.435532	-6.041060	ES
680332	Craiova	44.316669	23.799999	RO
2659700	Meiringen	46.726780	8.183960	CH
2963398	Kilkenny	52.654171	-7.252220	IE
2154445	Old Beach	-42.750000	147.283325	AU
2808406	Wilthen	51.099998	14.400000	DE
2918840	Goslar	51.904251	10.427660	DE
2145110	Wagga Wagga	-35.116669	147.366669	AU
3131189	Ytre Skalevik	58.083328	8.016670	NO
3179674	Castelgomberto	45.584888	11.395690	IT
2634387	Westhoughton	53.548988	-2.524640	GB
2880861	Langeoog	53.750000	7.483330	DE
2753686	Hoogland	52.182499	5.373610	NL
2669772	Taby	59.443901	18.068720	SE
5884083	Alma	48.550091	-71.649101	CA
3013619	Hazebrouck	50.723740	2.537290	FR
2163137	Hornsby	-33.702438	151.099304	AU
3652764	Puerto Ayora	-0.739310	-90.351761	EC
3177808	Crispiano	40.605831	17.230280	IT
4390914	Holden	38.714180	-93.991333	US
2072096	Elizabeth	-34.733330	138.649994	AU
2074700	Caversham	-31.883329	115.966667	AU
2981953	Sain-Bel	45.810699	4.598150	FR
2652861	Clevedon	51.440571	-2.857450	GB
3174621	Lomazzo	45.699181	9.034340	IT
6180961	White Rock	49.016361	-122.802597	CA
650166	Kuortane	62.799999	23.500000	FI
7281805	Caroline Springs	-37.741241	144.736313	AU
2612274	Strandby	57.491501	10.496080	DK
3119779	lEscala	42.125622	3.132610	ES
2523241	San Vito	39.444721	9.536670	IT
2759899	Alkmaar	52.631672	4.748610	NL
6053154	Lethbridge	49.699989	-112.818558	CA
2744118	Zaandam	52.438541	4.826430	NL
2156671	Mount Druitt	-33.766670	150.816666	AU
2749182	Oud-Beijerland	51.824169	4.412500	NL
6534256	Quarto	40.876808	14.139430	IT
2942093	Budelsdorf	54.316669	9.683330	DE
2747312	Simpelveld	50.834171	5.981940	NL
2510488	Teulada	38.729401	0.103830	ES
2156694	Mount Colah	-33.683331	151.116669	AU
8131587	Ymittos Athens	37.953419	23.748970	GR
2745973	Uithoorn	52.237499	4.826390	NL
2757345	Delft	52.006672	4.355560	NL
3143244	Oslo	59.912731	10.746090	NO
3143244	Oslo	59.912731	10.746090	NO
3143244	Oslo	59.912731	10.746090	NO
653880	Karsamaki	63.966671	25.766670	FI
6615542	Thorpe Hamlet	52.630322	1.313370	GB
2792165	Londerzeel	51.004681	4.303040	BE
3171457	Parma	44.802662	10.328980	IT
2637034	Stanwick	52.331982	-0.563480	GB
2643064	Marchwood	50.889660	-1.454400	GB
2175974	Bexley	-33.950001	151.116669	AU
2655777	Bexhill-on-Sea	50.850231	0.470950	GB
3088161	Prabuty	53.755001	19.205469	PL
4174252	Sugarmill Woods	28.732210	-82.506210	US
2977214	Saint-Remy-de-Provence	43.788479	4.831670	FR
3012417	Jaunay-Clan	46.684521	0.371280	FR
3104324	Zaragoza	41.656059	-0.877340	ES
2643339	Luton	51.879669	-0.417480	GB
2930726	Elsfleth	53.237480	8.456640	DE
2128558	Otofuke	42.991669	143.200287	JP
2923253	Gaissach	47.750000	11.583330	DE
2562266	Zabbar	35.876110	14.535000	MT
2826670	Stockstadt am Main	49.976940	9.064170	DE
2750947	Meppel	52.695831	6.194440	NL
683506	Bucharest	44.432251	26.106260	RO
2517618	Frigiliana	36.787472	-3.894410	ES
3176504	Fucecchio	43.727840	10.810110	IT
2968254	Villeurbanne	45.766670	4.883330	FR
3128030	Bigues i Riells	41.683331	2.233330	ES
981158	Lydenburg	-25.097799	30.459669	ZA
1668341	Taipei	25.047760	121.531853	TW
681290	Cluj-Napoca	46.766670	23.600000	RO
631758	Vihanti	64.483330	25.000000	FI
3120616	Hostalric	41.750000	2.633330	ES
7262861	Fishhook	61.744019	-149.236130	US
148730	Zanzibar	-6.163940	39.197929	TZ
2511032	San Vicent del Raspeig	38.396400	-0.525500	ES
2640729	Oxford	51.752220	-1.255960	GB
3174051	Mantova	45.160309	10.797840	IT
3181259	Cairo Montenotte	44.403141	8.274550	IT
2881062	Langenhagen	52.450001	9.750000	DE
2660351	Hilterfingen	46.735210	7.661850	CH
2173099	Burpengary	-27.157459	152.957581	AU
6534761	Saint-Christophe	45.754059	7.347200	IT
5219003	Westmont	40.315632	-78.951691	US
2070998	Geraldton	-28.766670	114.599998	AU
2644411	Lisburn	54.523369	-6.035270	GB
4717232	Palestine	31.762119	-95.630791	US
3582805	Zacatecoluca	13.500000	-88.866669	SV
3583361	San Salvador	13.689350	-89.187180	SV
2521215	Baza	37.490730	-2.772590	ES
254698	Preveza	38.950001	20.750000	GR
2633858	Winchester	51.065128	-1.318700	GB
2986991	Plabennec	48.502441	-4.426560	FR
2013348	Vladivostok	43.105621	131.873535	RU
554234	Kaliningrad	54.706490	20.510950	RU
501183	Rostov	57.191399	39.413940	RU
463830	Zelenogorsk	60.199680	29.701830	RU
511565	Penza	53.200661	45.004639	RU
519062	Novoanninskiy	50.528702	42.674702	RU
472757	Volgograd	48.719391	44.501839	RU
1490003	Tatarsk	55.219040	75.982841	RU
1490624	Surgut	61.250000	73.416672	RU
493702	Mikhaylovsk	45.128330	42.025558	RU
485432	Svobody	44.025558	43.050282	RU
539817	Kudymkar	59.017288	54.655998	RU
558236	Gryazovets	58.880001	40.252499	RU
472459	Vologda	59.218700	39.888599	RU
1508943	Borodino	55.910561	94.898331	RU
1502026	Krasnoyarsk	56.009720	92.791672	RU
2022890	Khabarovsk	48.480831	135.092773	RU
1510853	Barnaul	53.360561	83.763611	RU
527191	Michurinsk	52.897800	40.490700	RU
484646	Tambov	52.731670	41.433891	RU
553915	Kaluga	54.529301	36.275421	RU
1488458	Ural	55.907780	94.746391	RU
490065	Sovetskaya	44.776939	41.172218	RU
1496990	Novokuznetsk	53.755699	87.109901	RU
1503901	Kemerovo	55.333328	86.083328	RU
1497337	Norilsk	69.353500	88.202698	RU
471101	Vsevolozhsk	60.020432	30.637159	RU
545788	Kommunar	59.620560	30.389999	RU
472761	Volgodonsk	47.513611	42.151390	RU
2123628	Magadan	59.566669	150.800003	RU